# Blender v2.75 (sub 0) OBJ File: ''
# www.blender.org
mtllib watertower.mtl
o watertower.001
v 31.822542 15.087204 -0.350824
v 31.953762 15.087204 -0.194443
v 31.971760 15.087204 -0.092372
v 31.901939 15.087204 -0.284202
v 31.621504 15.087204 -0.386272
v 31.725149 15.087204 -0.386272
v 31.524109 15.087204 -0.350824
v 31.444712 15.087204 -0.284202
v 31.392889 15.087204 -0.194443
v 31.374893 15.087204 -0.092372
v 31.392889 15.087204 0.009698
v 31.444712 15.087204 0.099457
v 31.524109 15.087204 0.166079
v 31.621504 15.087204 0.201528
v 31.725149 15.087204 0.201528
v 31.822542 15.087204 0.166079
v 31.901939 15.087204 0.099457
v 31.953762 15.087204 0.009698
v 33.519146 16.185366 -0.092372
v 33.407829 19.428116 -0.723680
v 33.519146 19.428116 -0.092372
v 33.407829 16.185366 -0.723680
v 33.087307 19.428116 -1.278842
v 33.087307 16.185366 -1.278843
v 32.596237 19.428116 -1.690899
v 32.596237 16.185366 -1.690900
v 31.993849 19.428116 -1.910150
v 31.993849 16.185366 -1.910151
v 31.352802 19.428116 -1.910150
v 31.352802 16.185366 -1.910151
v 30.750416 19.428116 -1.690899
v 30.750416 16.185366 -1.690899
v 30.259346 19.428116 -1.278842
v 30.259346 16.185366 -1.278842
v 29.938822 19.428116 -0.723679
v 29.938822 16.185366 -0.723680
v 29.827505 19.428116 -0.092371
v 29.827505 16.185366 -0.092372
v 29.938822 19.428116 0.538937
v 29.938822 16.185366 0.538936
v 30.259346 19.428116 1.094099
v 30.259346 16.185364 1.094099
v 30.750416 19.428116 1.506156
v 30.750416 16.185364 1.506156
v 31.352804 19.428116 1.725407
v 31.352804 16.185364 1.725407
v 31.993851 19.428116 1.725407
v 31.993851 16.185364 1.725406
v 32.596237 19.428116 1.506156
v 32.596237 16.185364 1.506155
v 33.087307 19.428116 1.094099
v 33.087307 16.185364 1.094098
v 33.407829 19.428116 0.538936
v 33.407829 16.185366 0.538935
v 33.916222 2.165924 -2.337610
v 33.916222 2.165922 -2.547196
v 34.128651 2.165922 -2.547196
v 34.128651 2.165924 -2.337609
v 33.145611 16.211866 -1.344745
v 32.933182 16.211866 -1.344745
v 33.145611 16.211866 -1.554331
v 32.933182 16.211866 -1.554331
v 29.375694 2.165924 -2.335270
v 29.166109 2.165922 -2.335270
v 29.166109 2.165922 -2.547698
v 29.375694 2.165924 -2.547698
v 30.368557 16.211866 -1.564657
v 30.368557 16.211866 -1.352228
v 30.158970 16.211866 -1.564657
v 30.158970 16.211866 -1.352228
v 29.378035 2.165925 2.205256
v 29.378035 2.165923 2.414843
v 29.165607 2.165923 2.414843
v 29.165607 2.165925 2.205256
v 30.148645 16.211866 1.212397
v 30.361074 16.211866 1.212397
v 30.148645 16.211866 1.421984
v 30.361074 16.211866 1.421984
v 33.918560 2.165925 2.202917
v 34.128147 2.165923 2.202917
v 34.128147 2.165923 2.415345
v 33.918560 2.165925 2.415345
v 32.925697 16.211866 1.432309
v 32.925697 16.211866 1.219880
v 33.135284 16.211866 1.432309
v 33.135284 16.211866 1.219880
v 29.166525 16.201302 -0.092372
v 34.028950 16.201302 -0.949749
v 34.180130 16.201302 -0.092372
v 33.593647 16.201302 -1.703713
v 32.926727 16.201302 -2.263326
v 32.108627 16.201302 -2.561090
v 31.238024 16.201302 -2.561090
v 30.419926 16.201302 -2.263326
v 29.753004 16.201302 -1.703713
v 29.317703 16.201302 -0.949749
v 29.753006 16.201300 1.518970
v 29.317703 16.201300 0.765005
v 30.419926 16.201300 2.078582
v 31.238026 16.201300 2.376346
v 32.108627 16.201300 2.376346
v 32.926727 16.201300 2.078582
v 33.593647 16.201300 1.518969
v 34.028950 16.201300 0.765004
v 34.028950 16.284628 -0.949749
v 34.180130 16.284628 -0.092372
v 33.593647 16.284628 -1.703713
v 32.926727 16.284628 -2.263326
v 32.108627 16.284628 -2.561090
v 31.238024 16.284628 -2.561090
v 30.419926 16.284628 -2.263326
v 29.753004 16.284628 -1.703713
v 29.317703 16.284628 -0.949748
v 29.166525 16.284630 -0.092372
v 29.317703 16.284628 0.765005
v 29.753006 16.284628 1.518970
v 30.419926 16.284628 2.078582
v 31.238026 16.284626 2.376346
v 32.108627 16.284626 2.376346
v 32.926727 16.284628 2.078582
v 33.593647 16.284628 1.518969
v 34.028950 16.284628 0.765004
v 29.237675 16.289890 -0.092372
v 32.080627 19.427305 2.217534
v 33.877415 19.427305 -0.894594
v 34.018867 19.427305 -0.092372
v 33.470116 19.427305 -1.600056
v 32.846096 19.427305 -2.123669
v 32.080624 19.427305 -2.402278
v 31.266027 19.427305 -2.402278
v 30.500555 19.427305 -2.123669
v 29.876537 19.427305 -1.600055
v 29.469240 19.427305 -0.894593
v 29.327785 19.427305 -0.092371
v 29.469240 19.427305 0.709851
v 29.876539 19.427305 1.415313
v 30.500557 19.427305 1.938926
v 31.266027 19.427305 2.217534
v 33.470116 19.427305 1.415312
v 32.846096 19.427305 1.938925
v 33.877415 19.427305 0.709850
v 33.877415 19.513218 -0.894594
v 34.018867 19.513218 -0.092372
v 33.470116 19.513218 -1.600056
v 32.846096 19.513218 -2.123669
v 32.080624 19.513218 -2.402278
v 31.266027 19.513218 -2.402278
v 30.500555 19.513218 -2.123669
v 29.876537 19.513218 -1.600055
v 29.469240 19.513218 -0.894593
v 29.327785 19.513218 -0.092371
v 29.469240 19.513218 0.709851
v 29.876539 19.513218 1.415313
v 30.500557 19.513218 1.938926
v 31.266027 19.513218 2.217534
v 32.080627 19.513218 2.217534
v 32.846096 19.513218 1.938925
v 33.470116 19.513218 1.415312
v 33.877415 19.513218 0.709850
v 31.673326 20.609585 -0.092371
v 31.435598 15.207406 -0.066174
v 31.435598 13.073673 -0.066174
v 31.463703 13.079670 -0.027492
v 31.463703 15.207406 -0.027492
v 31.509176 13.083568 -0.042267
v 31.509176 15.207406 -0.042267
v 31.509176 13.079982 -0.090081
v 31.509176 15.207406 -0.090081
v 31.463703 13.073866 -0.104857
v 31.463703 15.207406 -0.104856
v 31.507555 12.752695 -0.017148
v 31.531235 12.778438 0.018517
v 31.573837 12.795135 0.001784
v 31.576488 12.779713 -0.044222
v 31.535522 12.753483 -0.055923
v 31.740253 12.522653 0.142294
v 31.749632 12.562829 0.167827
v 31.784098 12.587364 0.145304
v 31.796022 12.562353 0.105850
v 31.768925 12.522358 0.103990
v 32.904369 11.975610 1.091787
v 32.910183 12.017655 1.114006
v 32.945831 12.041405 1.092203
v 32.962048 12.014035 1.056509
v 32.936424 11.973372 1.056252
v 33.122753 11.791635 1.332246
v 33.137604 11.826322 1.363969
v 33.181999 11.842494 1.351562
v 33.194588 11.817800 1.312170
v 33.157970 11.786367 1.300232
v 33.181396 11.558264 1.458211
v 33.202007 11.573441 1.499982
v 33.248814 11.579294 1.492038
v 33.257130 11.567736 1.445357
v 33.215466 11.554738 1.424451
v 33.711548 6.435417 1.740254
v 33.733257 6.439995 1.782609
v 33.780212 6.444421 1.774744
v 33.787521 6.442579 1.727528
v 33.745087 6.437013 1.706212
v 32.753727 18.669416 1.182081
v 33.101631 18.669416 1.581414
v 33.053493 18.706888 1.604678
v 32.714840 18.706888 1.215961
v 33.053383 18.767521 1.574560
v 32.729691 18.767521 1.203020
v 33.101452 18.767521 1.532683
v 32.777760 18.767521 1.161142
v 33.131271 18.706888 1.536919
v 32.792614 18.706888 1.148201
v 33.196594 18.854027 1.764692
v 33.133091 18.871033 1.770318
v 33.108116 18.898544 1.711661
v 33.156185 18.898544 1.669783
v 33.210869 18.871033 1.702558
v 33.196594 20.716368 1.764692
v 33.133091 20.716368 1.770318
v 33.108116 20.716368 1.711662
v 33.156185 20.716368 1.669784
v 33.210869 20.716368 1.702559
v 33.160973 20.825712 1.723803
v 33.065121 20.724277 1.883727
v 33.283447 20.724277 1.864384
v 32.979256 20.724277 1.682060
v 33.144520 20.724277 1.538080
v 33.332520 20.724277 1.650763
v 31.670242 15.207406 -0.167915
v 31.670242 14.522475 -0.167915
v 31.707716 14.512531 -0.116339
v 31.707716 15.207406 -0.116339
v 31.768347 14.516102 -0.136039
v 31.768347 15.207406 -0.136039
v 31.768347 14.528255 -0.199791
v 31.768347 15.207406 -0.199791
v 31.707716 14.532194 -0.219492
v 31.707716 15.207406 -0.219492
v 31.668261 14.205977 -0.294404
v 31.704426 14.167912 -0.253091
v 31.765430 14.164566 -0.274105
v 31.766968 14.200564 -0.328405
v 31.706913 14.226158 -0.340950
v 31.491171 13.958720 -0.567144
v 31.512142 13.901638 -0.545087
v 31.560225 13.878012 -0.585034
v 31.568972 13.920493 -0.631780
v 31.526295 13.970373 -0.620723
v 30.578560 13.667296 -0.971681
v 30.594627 13.608758 -0.951426
v 30.630642 13.580982 -0.996539
v 30.636833 13.622355 -1.044676
v 30.604643 13.675699 -1.029313
v 30.143131 13.401879 -1.235785
v 30.173237 13.351915 -1.206973
v 30.225758 13.334171 -1.242055
v 30.228113 13.373168 -1.292549
v 30.177046 13.415013 -1.288674
v 29.989553 13.040766 -1.488051
v 30.031891 13.015921 -1.443057
v 30.089565 13.013029 -1.470145
v 30.082872 13.036088 -1.531880
v 30.021061 13.053230 -1.542947
v 29.524628 3.818661 -2.184459
v 29.567932 3.812971 -2.138018
v 29.625706 3.812092 -2.164955
v 29.618111 3.817239 -2.228043
v 29.555639 3.821299 -2.240097
v 31.737083 15.197322 -0.025447
v 31.737083 13.659951 -0.025447
v 31.793291 13.656415 0.051918
v 31.793291 15.197322 0.051918
v 31.884239 13.674731 0.022367
v 31.884239 15.197322 0.022367
v 31.884239 13.689588 -0.073261
v 31.884239 15.197322 -0.073260
v 31.793291 13.680454 -0.102811
v 31.793291 15.197322 -0.102811
v 31.966206 12.936483 -0.261332
v 32.022594 12.932310 -0.184160
v 32.112877 12.952747 -0.212996
v 32.112286 12.969552 -0.307990
v 32.021637 12.959500 -0.337863
v 32.041668 10.802128 -0.353014
v 32.097954 10.800797 -0.275720
v 32.188801 10.805278 -0.305241
v 32.188660 10.809376 -0.400781
v 32.097725 10.807430 -0.430306
v 33.409351 11.792126 1.817386
v 33.407818 11.792127 -1.814858
v 33.525448 11.792127 -1.813328
v 33.527634 11.792126 1.815200
v 33.409351 11.992304 1.817386
v 33.527634 11.992304 1.815200
v 33.525448 11.992304 -1.813328
v 33.407818 11.992304 -1.814858
v 33.737110 6.929423 2.148702
v 33.735508 6.929425 -2.142688
v 33.856766 6.929425 -2.141087
v 33.857361 6.929423 2.148104
v 33.737110 7.129601 2.148702
v 33.857361 7.129600 2.148104
v 33.856766 7.129603 -2.141087
v 33.735508 7.129603 -2.142688
v 33.464920 11.791550 1.727562
v 33.780773 7.129990 -1.993366
v 33.843655 7.129990 -1.993366
v 33.527802 11.791550 1.727562
v 33.464920 11.791606 1.526628
v 33.527802 11.791606 1.526628
v 33.843655 7.128527 -2.200909
v 33.780773 7.128527 -2.200909
v 33.187984 15.708062 -1.379925
v 33.443348 11.992003 1.728165
v 33.506229 11.992003 1.728165
v 33.250866 15.708062 -1.379925
v 33.187984 15.707636 -1.585417
v 33.250866 15.707636 -1.585417
v 33.506229 11.992993 1.513618
v 33.443348 11.992993 1.513618
v 33.159988 15.708914 1.549956
v 33.159843 15.708915 -1.564106
v 33.258018 15.708915 -1.563964
v 33.258713 15.708914 1.549260
v 33.159988 15.909092 1.549956
v 33.258713 15.909092 1.549260
v 33.258018 15.909094 -1.563964
v 33.159843 15.909094 -1.564106
v 30.144096 15.708915 -1.661994
v 30.144238 15.708914 1.452069
v 30.046066 15.708914 1.451926
v 30.045370 15.708915 -1.661297
v 30.144096 15.909094 -1.661994
v 30.045370 15.909094 -1.661297
v 30.046066 15.909092 1.451926
v 30.144238 15.909092 1.452069
v 30.116100 15.708062 1.267887
v 29.860737 11.992004 -1.840204
v 29.797853 11.992004 -1.840204
v 30.053219 15.708062 1.267887
v 30.116100 15.707635 1.473379
v 30.053217 15.707635 1.473379
v 29.797853 11.992993 -1.625657
v 29.860737 11.992993 -1.625657
v 29.891857 11.792127 -1.929424
v 29.890511 11.792126 1.702819
v 29.775761 11.792126 1.701289
v 29.770699 11.792127 -1.927239
v 29.891857 11.992304 -1.929424
v 29.770699 11.992304 -1.927239
v 29.775761 11.992304 1.701289
v 29.890511 11.992304 1.702819
v 29.839165 11.791551 -1.839600
v 29.523310 7.129988 1.881325
v 29.460428 7.129988 1.881325
v 29.776283 11.791551 -1.839601
v 29.839165 11.791607 -1.638667
v 29.776283 11.791607 -1.638667
v 29.460428 7.128525 2.088868
v 29.523310 7.128525 2.088869
v 29.566975 6.929425 -2.260743
v 29.568575 6.929423 2.030648
v 29.447319 6.929423 2.029047
v 29.446720 6.929425 -2.260144
v 29.566975 7.129603 -2.260743
v 29.446720 7.129602 -2.260144
v 29.447319 7.129601 2.029047
v 29.568575 7.129601 2.030648
v 33.160130 15.708914 1.451785
v 30.046762 15.708914 1.550653
v 30.046762 15.909092 1.550653
v 33.160130 15.909092 1.451785
v 32.975948 15.708062 1.479923
v 29.867857 11.992003 1.735286
v 29.867857 11.992003 1.798168
v 32.975948 15.708062 1.542805
v 33.181438 15.707635 1.479923
v 33.181438 15.707635 1.542805
v 30.082405 11.992993 1.798168
v 30.082405 11.992993 1.735286
v 33.410881 11.792126 1.699759
v 29.780823 11.792126 1.819570
v 29.780823 11.992304 1.819570
v 33.410881 11.992304 1.699759
v 29.868462 11.791550 1.756857
v 33.589386 7.129988 2.072711
v 33.589386 7.129988 2.135593
v 29.868462 11.791550 1.819740
v 30.069395 11.791606 1.756857
v 30.069395 11.791606 1.819740
v 33.796928 7.128525 2.135593
v 33.796928 7.128525 2.072711
v 33.738708 6.929423 2.027446
v 29.447918 6.929423 2.149301
v 29.447918 7.129600 2.149301
v 33.738708 7.129601 2.027446
v 33.435623 11.791551 -1.868897
v 29.714697 7.129990 -2.184751
v 29.714697 7.129990 -2.247633
v 33.435623 11.791551 -1.931779
v 33.234688 11.791607 -1.868897
v 33.234688 11.791607 -1.931779
v 29.507153 7.128527 -2.247633
v 29.507153 7.128527 -2.184751
v 30.143955 15.708915 -1.563822
v 33.257320 15.708915 -1.662690
v 33.257320 15.909094 -1.662690
v 30.143955 15.909094 -1.563822
v 30.328136 15.708062 -1.591960
v 33.436226 11.992004 -1.847325
v 33.436226 11.992004 -1.910207
v 30.328136 15.708062 -1.654842
v 30.122644 15.707636 -1.591960
v 30.122644 15.707636 -1.654842
v 33.221680 11.992993 -1.910207
v 33.221680 11.992993 -1.847325
v 29.893204 11.792127 -1.811797
v 33.523262 11.792127 -1.931610
v 33.523262 11.992304 -1.931610
v 29.893204 11.992304 -1.811797
v 29.565372 6.929425 -2.139486
v 33.856167 6.929425 -2.261341
v 33.856167 7.129602 -2.261341
v 29.565372 7.129603 -2.139486
v 28.924231 -0.191748 -2.059986
v 28.924231 -0.191748 -2.784153
v 29.668797 -0.191748 -2.784153
v 29.668797 -0.191748 -2.059986
v 28.924231 2.178905 -2.059986
v 29.668797 2.178905 -2.059986
v 29.668797 2.178905 -2.784153
v 28.924231 2.178905 -2.784153
v 28.924231 -0.191750 2.658861
v 28.924231 -0.191750 1.934694
v 29.668797 -0.191750 1.934694
v 29.668797 -0.191750 2.658861
v 28.924231 2.178905 2.658861
v 29.668797 2.178905 2.658861
v 29.668797 2.178905 1.934694
v 28.924231 2.178905 1.934694
v 33.657585 -0.191750 2.658861
v 33.657585 -0.191750 1.934694
v 34.402153 -0.191750 1.934694
v 34.402153 -0.191750 2.658861
v 33.657585 2.178905 2.658861
v 34.402153 2.178905 2.658861
v 34.402153 2.178905 1.934694
v 33.657585 2.178905 1.934694
v 33.657585 -0.191748 -2.059986
v 33.657585 -0.191748 -2.784153
v 34.402153 -0.191748 -2.784153
v 34.402153 -0.191748 -2.059986
v 33.657585 2.178905 -2.059986
v 34.402153 2.178905 -2.059986
v 34.402153 2.178905 -2.784153
v 33.657585 2.178905 -2.784153
v 33.962090 17.157631 -0.925414
v 34.108978 16.289890 -0.092372
v 34.108978 17.157631 -0.092372
v 33.962090 16.289890 -0.925414
v 33.539143 17.157631 -1.657978
v 33.539143 16.289890 -1.657978
v 32.891151 17.157631 -2.201708
v 32.891151 16.289890 -2.201708
v 32.096272 17.157631 -2.491020
v 32.096272 16.289890 -2.491020
v 31.250380 17.157631 -2.491020
v 31.250380 16.289890 -2.491020
v 30.455502 17.157631 -2.201708
v 30.455502 16.289890 -2.201708
v 29.807508 17.157631 -1.657978
v 29.807508 16.289890 -1.657978
v 29.384563 17.157631 -0.925413
v 29.384563 16.289890 -0.925413
v 29.237675 17.157631 -0.092371
v 29.237675 16.289890 -0.092372
v 29.384563 17.157631 0.740670
v 29.384563 16.289890 0.740670
v 29.807510 17.157631 1.473235
v 29.807510 16.289890 1.473235
v 30.455502 17.157631 2.016964
v 30.455502 16.289890 2.016964
v 31.250381 17.157631 2.306276
v 31.250381 16.289890 2.306276
v 32.096275 17.157631 2.306276
v 32.096275 16.289890 2.306276
v 32.891151 17.157631 2.016963
v 32.891151 16.289890 2.016963
v 33.539143 17.157631 1.473234
v 33.539143 16.289890 1.473234
v 33.962090 17.157631 0.740669
v 33.962090 16.289890 0.740669
v 34.132542 16.285692 -0.092372
v 33.984234 17.161829 -0.933473
v 34.132542 17.161829 -0.092372
v 33.984234 16.285692 -0.933473
v 33.557194 17.161829 -1.673126
v 33.557194 16.285692 -1.673126
v 32.902935 17.161829 -2.222116
v 32.902935 16.285692 -2.222116
v 32.100365 17.161829 -2.514227
v 32.100365 16.285692 -2.514227
v 31.246288 17.161829 -2.514227
v 31.246288 16.285692 -2.514227
v 30.443718 17.161829 -2.222116
v 30.443718 16.285692 -2.222116
v 29.789457 17.161829 -1.673125
v 29.789457 16.285692 -1.673125
v 29.362419 17.161829 -0.933473
v 29.362419 16.285692 -0.933473
v 29.214111 17.161829 -0.092371
v 29.214111 16.285692 -0.092372
v 29.362419 17.161829 0.748730
v 29.362419 16.285692 0.748730
v 29.789457 17.161829 1.488382
v 29.789457 16.285692 1.488382
v 30.443718 17.161829 2.037372
v 30.443718 16.285692 2.037372
v 31.246288 17.161829 2.329483
v 31.246288 16.285690 2.329483
v 32.100365 17.161829 2.329483
v 32.100365 16.285690 2.329483
v 32.902935 17.161829 2.037371
v 32.902935 16.285692 2.037371
v 33.557198 17.161829 1.488381
v 33.557198 16.285692 1.488381
v 33.984234 17.161829 0.748729
v 33.984234 16.285692 0.748729
vt 0.720424 0.716065
vt 0.719793 0.715788
vt 0.719588 0.715506
vt 0.720084 0.715983
vt 0.721089 0.715882
vt 0.720773 0.716033
vt 0.721333 0.715632
vt 0.721476 0.715314
vt 0.721501 0.714965
vt 0.721406 0.714628
vt 0.721200 0.714345
vt 0.720910 0.714148
vt 0.720570 0.714063
vt 0.720221 0.714098
vt 0.719905 0.714251
vt 0.719661 0.714502
vt 0.719517 0.714821
vt 0.719492 0.715170
vt 0.713819 0.718062
vt 0.637773 0.784497
vt 0.619013 0.752018
vt 0.715248 0.720165
vt 0.666507 0.808601
vt 0.717309 0.721653
vt 0.701749 0.821426
vt 0.719753 0.722346
vt 0.739252 0.821427
vt 0.722283 0.722162
vt 0.774493 0.808601
vt 0.724600 0.721124
vt 0.803226 0.784497
vt 0.726425 0.719355
vt 0.821984 0.752017
vt 0.727535 0.717068
vt 0.828503 0.715079
vt 0.727797 0.714539
vt 0.821995 0.678136
vt 0.727176 0.712072
vt 0.803242 0.645646
vt 0.725750 0.709967
vt 0.774507 0.621530
vt 0.723689 0.708477
vt 0.739255 0.608697
vt 0.721243 0.707782
vt 0.701739 0.608697
vt 0.718706 0.707966
vt 0.666487 0.621530
vt 0.716386 0.709006
vt 0.637752 0.645647
vt 0.714562 0.710778
vt 0.619000 0.678137
vt 0.713454 0.713067
vt 0.612493 0.715080
vt 0.713196 0.715597
vt 0.743549 0.334164
vt 0.771732 0.360907
vt 0.743027 0.383729
vt 0.715379 0.360522
vt 0.763285 0.381292
vt 0.723154 0.381292
vt 0.761457 0.341223
vt 0.724955 0.340664
vt 0.686777 0.334166
vt 0.714961 0.360905
vt 0.686257 0.383729
vt 0.658606 0.360524
vt 0.706516 0.381292
vt 0.666386 0.381292
vt 0.704685 0.341222
vt 0.668183 0.340665
vt 0.800319 0.334164
vt 0.828503 0.360905
vt 0.799798 0.383729
vt 0.772150 0.360521
vt 0.820055 0.381290
vt 0.779925 0.381290
vt 0.818229 0.341222
vt 0.781726 0.340662
vt 0.484693 0.412055
vt 0.511432 0.383870
vt 0.534258 0.412571
vt 0.511053 0.440224
vt 0.531820 0.392314
vt 0.531820 0.432445
vt 0.491749 0.394144
vt 0.491195 0.430645
vt 0.454325 0.722545
vt 0.635786 0.690549
vt 0.641427 0.722545
vt 0.619541 0.662412
vt 0.594652 0.641527
vt 0.564121 0.630415
vt 0.531631 0.630415
vt 0.501101 0.641527
vt 0.476213 0.662412
vt 0.459968 0.690549
vt 0.476213 0.782678
vt 0.459968 0.754541
vt 0.501101 0.803562
vt 0.531631 0.814674
vt 0.564121 0.814674
vt 0.594652 0.803562
vt 0.619541 0.782678
vt 0.635786 0.754541
vt 0.354028 0.175264
vt 0.386024 0.178373
vt 0.354028 0.178373
vt 0.386024 0.175264
vt 0.414162 0.178373
vt 0.414162 0.175264
vt 0.439050 0.178373
vt 0.439050 0.175264
vt 0.469580 0.178373
vt 0.469580 0.175264
vt 0.502070 0.178373
vt 0.502070 0.175264
vt 0.532600 0.178373
vt 0.532600 0.175264
vt 0.557489 0.178373
vt 0.557489 0.175264
vt 0.585626 0.178901
vt 0.585626 0.175791
vt 0.617622 0.178901
vt 0.617622 0.175791
vt 0.649619 0.178901
vt 0.649619 0.175791
vt 0.677756 0.178901
vt 0.677756 0.175792
vt 0.702644 0.178901
vt 0.702644 0.175792
vt 0.733175 0.178901
vt 0.733175 0.175792
vt 0.765665 0.178901
vt 0.765665 0.175792
vt 0.796195 0.178901
vt 0.796195 0.175792
vt 0.821084 0.178901
vt 0.821084 0.175792
vt 0.293895 0.175264
vt 0.322032 0.178373
vt 0.293895 0.178373
vt 0.322032 0.175264
vt 0.260955 0.721620
vt 0.446281 0.721620
vt 0.440639 0.753617
vt 0.424394 0.781754
vt 0.399506 0.802637
vt 0.368975 0.813750
vt 0.336485 0.813750
vt 0.305955 0.802637
vt 0.281067 0.781754
vt 0.264822 0.753617
vt 0.259180 0.721620
vt 0.264822 0.689624
vt 0.281067 0.661487
vt 0.305955 0.640603
vt 0.336485 0.629490
vt 0.368975 0.629490
vt 0.399506 0.640603
vt 0.424394 0.661487
vt 0.440639 0.689624
vt 0.752045 0.813996
vt 0.819099 0.697855
vt 0.824378 0.727793
vt 0.803899 0.671528
vt 0.780611 0.651987
vt 0.752045 0.641590
vt 0.721645 0.641590
vt 0.693079 0.651987
vt 0.669791 0.671528
vt 0.654591 0.697855
vt 0.649312 0.727793
vt 0.654591 0.757731
vt 0.669791 0.784058
vt 0.693079 0.803598
vt 0.721645 0.813996
vt 0.803899 0.784057
vt 0.780612 0.803598
vt 0.819099 0.757731
vt 0.764858 0.170035
vt 0.794796 0.173241
vt 0.764858 0.173241
vt 0.794796 0.170035
vt 0.821123 0.173241
vt 0.821123 0.170035
vt 0.327848 0.170035
vt 0.351135 0.173241
vt 0.327848 0.173241
vt 0.351135 0.170035
vt 0.379701 0.173241
vt 0.379701 0.170035
vt 0.410101 0.173241
vt 0.410101 0.170035
vt 0.438668 0.173241
vt 0.438668 0.170035
vt 0.461955 0.173241
vt 0.461955 0.170035
vt 0.488282 0.173241
vt 0.488282 0.170035
vt 0.518220 0.173241
vt 0.518220 0.170035
vt 0.548158 0.173241
vt 0.548158 0.170035
vt 0.574485 0.173241
vt 0.574485 0.170035
vt 0.597773 0.173241
vt 0.597773 0.170035
vt 0.626339 0.173241
vt 0.626339 0.170035
vt 0.656739 0.173241
vt 0.656739 0.170035
vt 0.685306 0.173241
vt 0.685306 0.170035
vt 0.708593 0.173241
vt 0.708593 0.170035
vt 0.734920 0.173241
vt 0.734920 0.170035
vt 0.523567 0.492455
vt 0.518288 0.522393
vt 0.436035 0.492455
vt 0.503089 0.548720
vt 0.479801 0.568261
vt 0.451234 0.578658
vt 0.420835 0.578658
vt 0.392269 0.568261
vt 0.368981 0.548720
vt 0.353781 0.522393
vt 0.348502 0.492455
vt 0.353781 0.462517
vt 0.368981 0.436190
vt 0.392269 0.416649
vt 0.420835 0.406252
vt 0.451234 0.406252
vt 0.479801 0.416650
vt 0.503089 0.436191
vt 0.518288 0.462517
vt 0.823867 0.393850
vt 0.734381 0.394455
vt 0.734622 0.392832
vt 0.823856 0.392227
vt 0.734772 0.390923
vt 0.823843 0.390320
vt 0.823904 0.399385
vt 0.734833 0.399988
vt 0.734669 0.397983
vt 0.823891 0.397379
vt 0.734400 0.396078
vt 0.823878 0.395473
vt 0.733657 0.394482
vt 0.720039 0.394542
vt 0.720831 0.392897
vt 0.733695 0.392840
vt 0.721073 0.390999
vt 0.733470 0.390944
vt 0.733618 0.400007
vt 0.721381 0.400061
vt 0.720983 0.398057
vt 0.733805 0.398001
vt 0.720279 0.396143
vt 0.733961 0.396083
vt 0.720280 0.392625
vt 0.706732 0.392539
vt 0.706231 0.390531
vt 0.720544 0.390622
vt 0.720012 0.400328
vt 0.707141 0.400244
vt 0.707298 0.398497
vt 0.718792 0.398566
vt 0.707369 0.396540
vt 0.719386 0.396615
vt 0.707017 0.394546
vt 0.719838 0.394627
vt 0.705145 0.392501
vt 0.640137 0.392615
vt 0.639004 0.390612
vt 0.705797 0.390495
vt 0.703779 0.399754
vt 0.640979 0.399862
vt 0.640147 0.398248
vt 0.703252 0.398109
vt 0.643075 0.396615
vt 0.701643 0.396514
vt 0.643313 0.394615
vt 0.701960 0.394511
vt 0.625281 0.392759
vt 0.638440 0.392544
vt 0.638350 0.390582
vt 0.625149 0.390795
vt 0.624805 0.400305
vt 0.638976 0.400085
vt 0.639566 0.398348
vt 0.625358 0.398574
vt 0.638417 0.396540
vt 0.625279 0.396754
vt 0.638288 0.394543
vt 0.625299 0.394757
vt 0.823186 0.373845
vt 0.812065 0.373687
vt 0.812094 0.371843
vt 0.823586 0.371989
vt 0.811866 0.369878
vt 0.823815 0.370020
vt 0.812370 0.367928
vt 0.823716 0.368073
vt 0.812238 0.366098
vt 0.822883 0.366253
vt 0.811727 0.364086
vt 0.823117 0.364251
vt 0.806507 0.371594
vt 0.598783 0.371998
vt 0.594941 0.370221
vt 0.810975 0.369801
vt 0.594920 0.368243
vt 0.811013 0.367824
vt 0.594948 0.366261
vt 0.810632 0.365843
vt 0.594689 0.364467
vt 0.810472 0.364049
vt 0.802551 0.373605
vt 0.602480 0.373994
vt 0.551121 0.370919
vt 0.550106 0.374047
vt 0.548461 0.368987
vt 0.546817 0.374047
vt 0.545801 0.370919
vt 0.543706 0.370039
vt 0.544732 0.373148
vt 0.542082 0.375067
vt 0.540419 0.370037
vt 0.539416 0.373145
vt 0.612075 0.821291
vt 0.579145 0.817545
vt 0.579200 0.817766
vt 0.610713 0.821427
vt 0.579406 0.817762
vt 0.610058 0.821201
vt 0.579655 0.817406
vt 0.610124 0.820804
vt 0.579456 0.817407
vt 0.610932 0.820736
vt 0.576595 0.817524
vt 0.574739 0.817784
vt 0.572021 0.817372
vt 0.572295 0.816626
vt 0.575037 0.816800
vt 0.174466 0.771742
vt 0.173455 0.771852
vt 0.171497 0.771618
vt 0.173485 0.771621
vt 0.174492 0.771618
vt 0.447739 0.364297
vt 0.454162 0.373361
vt 0.441104 0.373207
vt 0.458344 0.360989
vt 0.447870 0.353190
vt 0.437215 0.360740
vt 0.567750 0.351169
vt 0.596476 0.351123
vt 0.596897 0.353286
vt 0.567753 0.353332
vt 0.596751 0.355829
vt 0.567758 0.355875
vt 0.596246 0.358504
vt 0.567762 0.358548
vt 0.596085 0.361047
vt 0.567766 0.361091
vt 0.567747 0.349006
vt 0.596066 0.348961
vt 0.597429 0.351470
vt 0.612127 0.351177
vt 0.612303 0.353574
vt 0.597301 0.353635
vt 0.612430 0.356134
vt 0.597138 0.356177
vt 0.611883 0.358807
vt 0.597630 0.358851
vt 0.610574 0.361334
vt 0.597738 0.361394
vt 0.597839 0.349308
vt 0.611648 0.349250
vt 0.613605 0.351217
vt 0.628142 0.351370
vt 0.629104 0.353774
vt 0.613304 0.353561
vt 0.629534 0.356367
vt 0.612673 0.356205
vt 0.629446 0.359006
vt 0.613596 0.358867
vt 0.628015 0.361663
vt 0.614883 0.361555
vt 0.614835 0.348807
vt 0.628801 0.348918
vt 0.564590 0.356180
vt 0.523567 0.356136
vt 0.523464 0.353591
vt 0.564703 0.353631
vt 0.523212 0.351250
vt 0.566740 0.351284
vt 0.522699 0.348575
vt 0.567247 0.348611
vt 0.565660 0.361370
vt 0.524615 0.361332
vt 0.523588 0.358788
vt 0.565020 0.358832
vt 0.521608 0.356263
vt 0.500235 0.356416
vt 0.500203 0.353970
vt 0.520890 0.353821
vt 0.500911 0.351611
vt 0.521764 0.351427
vt 0.500260 0.348942
vt 0.522306 0.348749
vt 0.521322 0.361513
vt 0.501247 0.361657
vt 0.500320 0.359050
vt 0.521308 0.358900
vt 0.499717 0.358754
vt 0.481242 0.358851
vt 0.481941 0.356703
vt 0.498196 0.356573
vt 0.482760 0.354421
vt 0.498334 0.354251
vt 0.482034 0.351758
vt 0.498399 0.351577
vt 0.482125 0.349091
vt 0.498648 0.348912
vt 0.498909 0.360892
vt 0.480364 0.361043
vt 0.823307 0.385814
vt 0.435434 0.387060
vt 0.435489 0.385100
vt 0.822251 0.383858
vt 0.435567 0.382678
vt 0.822245 0.381435
vt 0.435574 0.380024
vt 0.823005 0.378777
vt 0.435757 0.377399
vt 0.823431 0.376151
vt 0.823662 0.388148
vt 0.435377 0.389396
vt 0.569120 0.370028
vt 0.567765 0.374197
vt 0.565573 0.367450
vt 0.563381 0.374197
vt 0.562026 0.370028
vt 0.575582 0.367585
vt 0.576963 0.371746
vt 0.573446 0.374335
vt 0.571212 0.367603
vt 0.569892 0.371775
vt 0.632035 0.358289
vt 0.696511 0.358415
vt 0.696653 0.361660
vt 0.632028 0.361533
vt 0.632064 0.343405
vt 0.696689 0.343531
vt 0.695914 0.347345
vt 0.632056 0.347219
vt 0.695283 0.351354
vt 0.632048 0.351230
vt 0.695658 0.355168
vt 0.632041 0.355044
vt 0.699126 0.358045
vt 0.731040 0.358147
vt 0.730193 0.361276
vt 0.698251 0.361173
vt 0.699123 0.343068
vt 0.730977 0.343170
vt 0.731312 0.347039
vt 0.699507 0.346938
vt 0.731864 0.351048
vt 0.700145 0.350946
vt 0.731106 0.354797
vt 0.699346 0.354695
vt 0.733496 0.354281
vt 0.823092 0.353714
vt 0.823022 0.356955
vt 0.733560 0.357521
vt 0.822987 0.360770
vt 0.732867 0.361340
vt 0.732846 0.343212
vt 0.822992 0.342641
vt 0.823010 0.346652
vt 0.732345 0.347225
vt 0.822981 0.350466
vt 0.732656 0.351038
vt 0.561710 0.367716
vt 0.559678 0.373971
vt 0.556390 0.363850
vt 0.553102 0.373971
vt 0.551069 0.367716
vt 0.580277 0.374497
vt 0.578247 0.368249
vt 0.583563 0.364378
vt 0.586848 0.374488
vt 0.588879 0.368233
vt 0.279109 0.419803
vt 0.373515 0.608278
vt 0.375452 0.606747
vt 0.281041 0.419780
vt 0.280802 0.420036
vt 0.279670 0.420947
vt 0.373550 0.608161
vt 0.376235 0.608278
vt 0.275123 0.353509
vt 0.276331 0.608278
vt 0.278626 0.607093
vt 0.276558 0.353725
vt 0.276552 0.352647
vt 0.274840 0.353362
vt 0.276331 0.606749
vt 0.278691 0.607186
vt 0.554546 0.425629
vt 0.822262 0.436402
vt 0.822412 0.434127
vt 0.554734 0.423544
vt 0.559686 0.424397
vt 0.559893 0.425068
vt 0.828278 0.436402
vt 0.828503 0.434359
vt 0.440171 0.335418
vt 0.658188 0.338698
vt 0.658004 0.336636
vt 0.440485 0.334756
vt 0.434905 0.334166
vt 0.435032 0.336256
vt 0.651666 0.338923
vt 0.651666 0.336571
vt 0.421033 0.625159
vt 0.358636 0.771200
vt 0.361409 0.771171
vt 0.422446 0.626513
vt 0.422132 0.626600
vt 0.420609 0.626177
vt 0.359232 0.769847
vt 0.361467 0.771200
vt 0.356183 0.771200
vt 0.358218 0.613645
vt 0.355613 0.613992
vt 0.354363 0.770489
vt 0.354604 0.770285
vt 0.356182 0.770099
vt 0.358130 0.613648
vt 0.355613 0.612514
vt 0.440255 0.357563
vt 0.657664 0.359007
vt 0.658188 0.356949
vt 0.440150 0.356896
vt 0.434831 0.356294
vt 0.434874 0.358381
vt 0.651619 0.359303
vt 0.651369 0.356949
vt 0.271796 0.607330
vt 0.274422 0.397971
vt 0.271935 0.398451
vt 0.270446 0.607003
vt 0.270453 0.608278
vt 0.272141 0.607438
vt 0.274355 0.398065
vt 0.271935 0.396728
vt 0.554488 0.386232
vt 0.822262 0.396805
vt 0.822410 0.394533
vt 0.554674 0.384148
vt 0.559628 0.384996
vt 0.559835 0.385668
vt 0.828279 0.396805
vt 0.828503 0.394759
vt 0.378312 0.608026
vt 0.484274 0.376336
vt 0.481693 0.376448
vt 0.377101 0.607228
vt 0.376654 0.608208
vt 0.378508 0.608278
vt 0.483631 0.377724
vt 0.481674 0.376336
vt 0.657273 0.359962
vt 0.499416 0.360963
vt 0.500550 0.363483
vt 0.657086 0.361541
vt 0.658188 0.361542
vt 0.657477 0.359721
vt 0.500894 0.360963
vt 0.500547 0.363570
vt 0.440153 0.340593
vt 0.658188 0.343860
vt 0.658004 0.341800
vt 0.440468 0.339932
vt 0.434887 0.339341
vt 0.435014 0.341432
vt 0.651665 0.344087
vt 0.651665 0.341734
vt 0.657230 0.351033
vt 0.447147 0.348978
vt 0.447628 0.351389
vt 0.656809 0.352448
vt 0.658188 0.352404
vt 0.657246 0.350656
vt 0.447235 0.349042
vt 0.445908 0.351389
vt 0.554596 0.399311
vt 0.822267 0.409929
vt 0.822413 0.407655
vt 0.554704 0.397223
vt 0.559864 0.398030
vt 0.559737 0.398690
vt 0.828278 0.409929
vt 0.828503 0.407885
vt 0.657347 0.347126
vt 0.403538 0.344505
vt 0.403971 0.346859
vt 0.657109 0.348552
vt 0.658188 0.348560
vt 0.657497 0.346836
vt 0.403630 0.344560
vt 0.402441 0.346859
vt 0.554621 0.412436
vt 0.822267 0.423126
vt 0.822414 0.420851
vt 0.554729 0.410348
vt 0.559888 0.411156
vt 0.559761 0.411816
vt 0.828277 0.423126
vt 0.828503 0.421082
vt 0.466858 0.611683
vt 0.612075 0.673595
vt 0.612037 0.670832
vt 0.467657 0.610309
vt 0.466647 0.609869
vt 0.466575 0.611822
vt 0.610718 0.673007
vt 0.612075 0.670754
vt 0.440253 0.354136
vt 0.657664 0.355580
vt 0.658188 0.353522
vt 0.440148 0.353469
vt 0.434829 0.352866
vt 0.434873 0.354954
vt 0.651619 0.355876
vt 0.651369 0.353522
vt 0.424352 0.770842
vt 0.611971 0.676690
vt 0.612075 0.674013
vt 0.423988 0.769429
vt 0.422865 0.770042
vt 0.424406 0.771200
vt 0.612075 0.676726
vt 0.610548 0.674778
vt 0.573596 0.331039
vt 0.827405 0.333745
vt 0.826972 0.331392
vt 0.573834 0.329613
vt 0.572756 0.329604
vt 0.573446 0.331329
vt 0.827313 0.333691
vt 0.828503 0.331392
vt 0.200292 0.681004
vt 0.200292 0.705800
vt 0.174798 0.705800
vt 0.174798 0.681004
vt 0.174886 0.680531
vt 0.174887 0.655037
vt 0.199682 0.655037
vt 0.199682 0.680532
vt 0.226535 0.818181
vt 0.201041 0.818181
vt 0.201041 0.737008
vt 0.226535 0.737009
vt 0.251640 0.736121
vt 0.226844 0.736121
vt 0.226844 0.654949
vt 0.251640 0.654949
vt 0.201349 0.736121
vt 0.201349 0.654949
vt 0.251331 0.818181
vt 0.251331 0.737009
vt 0.525257 0.561092
vt 0.490749 0.554048
vt 0.514435 0.543836
vt 0.506370 0.578849
vt 0.541758 0.574001
vt 0.529283 0.597168
vt 0.561393 0.581743
vt 0.556930 0.607566
vt 0.582049 0.582613
vt 0.586485 0.608278
vt 0.601334 0.576463
vt 0.614415 0.598806
vt 0.617052 0.563843
vt 0.637195 0.580091
vt 0.627254 0.546382
vt 0.651904 0.554508
vt 0.630647 0.526254
vt 0.656765 0.525325
vt 0.626891 0.505889
vt 0.651334 0.496076
vt 0.616453 0.487778
vt 0.636245 0.470213
vt 0.600469 0.474220
vt 0.613177 0.450932
vt 0.580839 0.466865
vt 0.584879 0.440642
vt 0.559936 0.466609
vt 0.554793 0.440642
vt 0.540303 0.473470
vt 0.526617 0.450943
vt 0.524335 0.486583
vt 0.503828 0.470244
vt 0.513968 0.504173
vt 0.489232 0.496101
vt 0.510512 0.524061
vt 0.484693 0.525276
vt 0.657184 0.522180
vt 0.687312 0.501953
vt 0.683923 0.522738
vt 0.662420 0.492316
vt 0.697549 0.483661
vt 0.677552 0.466115
vt 0.713358 0.470096
vt 0.700732 0.446811
vt 0.732760 0.462912
vt 0.729076 0.436821
vt 0.753312 0.462972
vt 0.758990 0.437404
vt 0.772432 0.470236
vt 0.786621 0.448431
vt 0.787773 0.483862
vt 0.808489 0.468258
vt 0.797439 0.502532
vt 0.822505 0.493877
vt 0.802375 0.522902
vt 0.828503 0.522733
vt 0.799730 0.543286
vt 0.824326 0.552141
vt 0.790042 0.561339
vt 0.810028 0.578323
vt 0.774551 0.574862
vt 0.787363 0.597864
vt 0.755195 0.582147
vt 0.759210 0.608278
vt 0.734378 0.582261
vt 0.729098 0.608278
vt 0.714669 0.575163
vt 0.700739 0.597878
vt 0.698486 0.561699
vt 0.677591 0.578353
vt 0.687804 0.543491
vt 0.662459 0.552063
vn 0.000000 -1.000000 -0.000000
vn 1.000000 -0.000000 0.000000
vn 0.939700 -0.000000 -0.342000
vn 0.707100 -0.000000 -0.707100
vn 0.766000 -0.000000 -0.642800
vn 0.500000 -0.000000 -0.866000
vn 0.707100 0.000100 -0.707100
vn 0.173600 0.000000 -0.984800
vn 0.473300 0.000000 -0.880900
vn -0.173600 -0.000000 -0.984800
vn -0.473300 0.000000 -0.880900
vn -0.500000 -0.000000 -0.866000
vn -0.707100 0.000000 -0.707100
vn -0.766000 0.000000 -0.642800
vn -0.707100 0.000100 -0.707100
vn -0.939700 -0.000000 -0.342000
vn -1.000000 -0.000000 0.000000
vn -0.939700 -0.000000 0.342000
vn -0.707100 -0.000000 0.707100
vn -0.766000 -0.000000 0.642800
vn -0.500000 0.000000 0.866000
vn -0.173600 -0.000000 0.984800
vn -0.473300 -0.000000 0.880900
vn 0.173600 -0.000000 0.984800
vn 0.473300 -0.000000 0.880900
vn 0.500000 -0.000000 0.866000
vn 0.707100 -0.000000 0.707100
vn 0.766000 -0.000000 0.642800
vn 0.939700 -0.000000 0.342000
vn 0.707100 -0.000100 0.707100
vn -0.000000 -0.114900 0.993400
vn -0.000000 -0.105300 0.994400
vn -0.000000 -1.000000 -0.000100
vn 0.993500 0.113800 -0.000000
vn 0.000000 0.105300 -0.994400
vn 0.993500 0.113900 0.000000
vn 0.993400 -0.114900 0.000000
vn 0.994400 -0.105300 0.000000
vn -0.000100 -1.000000 0.000000
vn -0.000000 0.113800 -0.993500
vn -0.994400 0.105300 -0.000000
vn 0.000000 0.113900 -0.993500
vn -0.000000 -0.114900 -0.993400
vn 0.000000 -0.105300 -0.994400
vn 0.000000 -1.000000 0.000100
vn -0.993500 0.113800 0.000000
vn -0.000000 0.105300 0.994400
vn -0.993500 0.113900 -0.000000
vn -0.993400 -0.114900 -0.000000
vn -0.994400 -0.105300 -0.000000
vn 0.000100 -1.000000 -0.000000
vn 0.000000 0.113800 0.993500
vn 0.994400 0.105300 0.000000
vn -0.000000 0.113900 0.993500
vn 0.707100 -0.000100 -0.707100
vn -0.000100 -1.000000 -0.000100
vn -0.000200 -1.000000 -0.000000
vn 0.000200 -1.000000 -0.000000
vn -0.000100 -1.000000 -0.000200
vn -0.000200 -1.000000 -0.000200
vn 0.000100 -1.000000 0.000100
vn 0.000100 -1.000000 -0.000100
vn 0.000200 -1.000000 -0.000200
vn -0.040000 0.999200 0.000000
vn 1.000000 0.000000 0.000100
vn -1.000000 0.000000 0.000100
vn -0.473300 0.000100 -0.880900
vn -0.707100 -0.000100 -0.707100
vn 0.000300 -1.000000 -0.000100
vn -0.707100 0.000200 0.707100
vn 0.000200 -1.000000 -0.000100
vn 0.000100 -1.000000 -0.000200
vn -0.000000 1.000000 0.000000
vn 0.473200 -0.000000 -0.880900
vn -0.473200 -0.000000 -0.880900
vn -0.473200 -0.000000 0.880900
vn 0.473200 -0.000000 0.880900
vn -0.997500 0.000000 -0.070800
vn -0.673600 0.000000 0.739100
vn -0.617700 0.000000 0.786400
vn -0.637800 -0.000000 -0.770200
vn -0.617700 -0.000100 -0.786400
vn -0.881000 -0.459500 -0.112900
vn -0.704600 0.084800 0.704600
vn 0.625800 0.465600 0.625800
vn 0.702400 0.115100 -0.702400
vn -0.594700 -0.363400 -0.717100
vn -0.637700 -0.000000 -0.770300
vn -0.689400 -0.689500 0.222000
vn -0.669400 0.322000 0.669500
vn -0.704600 0.084900 0.704600
vn 0.580300 0.580300 0.571300
vn 0.661300 0.354100 -0.661300
vn -0.158100 -0.698200 -0.698200
vn -0.616400 -0.616400 0.490100
vn -0.597600 0.534600 0.597600
vn -0.669500 0.321900 0.669500
vn 0.556900 0.762000 0.330500
vn 0.580300 0.580400 0.571300
vn 0.632100 0.448200 -0.632100
vn 0.286000 -0.677600 -0.677600
vn -0.657000 -0.656900 0.369900
vn -0.577400 0.577300 0.577400
vn 0.623300 0.657400 0.423500
vn 0.641800 0.419800 -0.641800
vn 0.632100 0.448100 -0.632100
vn 0.272600 -0.680300 -0.680300
vn -0.656900 -0.656900 0.369900
vn -0.823900 -0.562000 -0.072500
vn -0.616100 0.490800 0.616100
vn -0.577300 0.577400 0.577300
vn 0.577400 0.577300 0.577400
vn 0.623300 0.657500 0.423400
vn 0.715300 0.061800 -0.696000
vn 0.641700 0.419900 -0.641800
vn -0.148100 -0.699300 -0.699300
vn -0.824000 -0.562000 -0.072500
vn -0.905600 -0.252800 -0.340400
vn -0.707100 0.005000 0.707100
vn 0.693300 0.196500 0.693300
vn 0.577300 0.577300 0.577400
vn 0.702200 0.118200 -0.702100
vn 0.715300 0.061900 -0.696000
vn -0.368200 -0.164200 -0.915100
vn -0.617700 0.000100 0.786400
vn -1.000000 0.000000 -0.000100
vn -0.617700 0.000100 -0.786400
vn 0.693300 0.196600 0.693300
vn -0.707100 0.004900 0.707100
vn -0.905600 -0.252900 -0.340400
vn -0.577300 -0.577400 0.577300
vn -0.717100 -0.309000 0.624700
vn -0.577400 0.577300 0.577300
vn -0.443200 0.809000 0.386100
vn 0.577400 0.577300 -0.577300
vn 0.443200 0.809000 -0.386100
vn 0.577400 -0.577400 -0.577300
vn 0.717100 -0.309000 -0.624800
vn 0.517300 -0.605100 0.605200
vn -0.577400 -0.577300 0.577300
vn -0.577400 -0.577400 0.577300
vn -0.705700 0.705600 0.064100
vn -0.577300 0.577400 0.577400
vn 0.221300 0.689600 -0.689600
vn 0.769300 -0.348500 -0.535400
vn 0.517300 -0.605100 0.605100
vn 0.656900 -0.000000 0.754000
vn -0.514100 -0.000000 0.857700
vn -0.577300 -0.577300 0.577400
vn -0.974600 -0.000000 -0.223900
vn -0.088300 0.000000 -0.996100
vn 0.221200 0.689600 -0.689600
vn 0.920100 0.000000 -0.391700
vn 0.769400 -0.348500 -0.535400
vn -0.349800 0.732900 0.583600
vn 0.446900 0.732900 0.513000
vn -0.663100 0.732800 -0.152300
vn -0.060100 0.732900 -0.677700
vn 0.626000 0.732900 -0.266500
vn -0.984200 0.000000 0.177000
vn -0.560900 -0.000000 0.827900
vn -0.664300 -0.000000 -0.747500
vn -0.617600 -0.000100 -0.786500
vn -0.991400 -0.038700 0.124800
vn -0.379200 -0.610800 0.695100
vn 0.663400 -0.346100 0.663400
vn 0.678600 0.281400 -0.678500
vn -0.422800 0.640800 -0.640800
vn -0.991400 -0.038700 0.124900
vn -0.656400 0.656400 0.371700
vn -0.528600 -0.600300 0.600200
vn -0.379200 -0.610700 0.695200
vn 0.673300 -0.673300 0.305600
vn 0.707000 0.019700 -0.707000
vn 0.678500 0.281400 -0.678500
vn -0.068600 0.705400 -0.705400
vn -0.422700 0.640800 -0.640800
vn -0.453200 -0.610000 0.650000
vn -0.528500 -0.600300 0.600300
vn 0.619300 -0.784600 0.028300
vn 0.673300 -0.673300 0.305700
vn 0.681100 -0.268900 -0.681100
vn -0.082600 0.704700 -0.704700
vn -0.068600 0.705400 -0.705500
vn -0.580700 0.580700 0.570600
vn -0.541400 -0.540200 0.644300
vn 0.686900 -0.687000 0.237100
vn 0.619300 -0.784600 0.028400
vn 0.701800 -0.122400 -0.701800
vn -0.303600 0.673700 -0.673700
vn -0.766300 0.607200 0.210000
vn -0.554000 -0.588700 0.588700
vn 0.619900 -0.619900 0.481000
vn 0.687000 -0.687000 0.237000
vn 0.666500 0.333900 -0.666500
vn -0.447100 0.632500 -0.632500
vn -0.766200 0.607300 0.210000
vn -0.950000 0.098300 0.296300
vn -0.435900 -0.144900 0.888200
vn 0.699800 -0.143000 0.699900
vn 0.706900 0.026100 -0.706900
vn 0.666500 0.334000 -0.666500
vn -0.698200 0.158600 -0.698200
vn -0.617700 -0.000000 -0.786400
vn 0.699800 -0.143000 0.699800
vn -0.435900 -0.144900 0.888300
vn -0.950000 0.098400 0.296300
vn -0.989500 0.000000 0.144300
vn -0.631300 -0.000000 0.775500
vn -0.702000 -0.000000 -0.712200
vn -0.617700 0.000300 -0.786400
vn -0.989500 0.000000 0.144400
vn -0.792500 -0.579600 -0.189900
vn -0.397900 -0.644800 0.652600
vn 0.698800 0.153200 0.698700
vn 0.583800 0.564300 -0.583800
vn -0.520400 0.401900 -0.753400
vn -0.792500 -0.579500 -0.189900
vn -0.996000 -0.089400 -0.000100
vn -0.612400 -0.103000 0.783800
vn -0.398000 -0.644800 0.652500
vn 0.707100 0.006000 0.707100
vn 0.698800 0.153200 0.698800
vn 0.703800 0.096200 -0.703800
vn -0.618100 0.059500 -0.783900
vn 0.707000 0.006100 0.707100
vn -0.996000 -0.089400 -0.000000
vn 0.703800 0.096100 -0.703800
vn 0.000100 1.000000 -0.000000
vn -0.000000 -0.687600 0.726100
vn 0.000000 -0.707100 0.707100
vn 0.000000 0.687900 -0.725800
vn -0.000000 0.707100 -0.707100
vn 0.000100 -0.707100 0.707100
vn -0.000100 -0.687600 0.726100
vn 0.000000 -0.687500 0.726100
vn -0.000100 0.687900 -0.725800
vn 0.000100 0.707100 -0.707100
vn -0.000000 0.697800 0.716300
vn 0.000000 0.707100 0.707100
vn -0.000000 0.697700 0.716400
vn -0.000000 -0.697200 -0.716900
vn 0.000000 -0.707100 -0.707100
vn 0.000000 -0.697100 -0.716900
vn 0.000000 -0.707000 -0.707200
vn -0.000100 0.697700 0.716400
vn 0.000000 0.697800 -0.716300
vn 0.000000 0.697700 -0.716400
vn 0.000000 -0.697200 0.716900
vn -0.000000 -0.697100 0.716900
vn -0.000000 -0.707000 0.707200
vn 0.000100 0.697700 -0.716400
vn 0.000000 -0.687600 -0.726100
vn -0.000000 0.687900 0.725800
vn -0.000100 -0.707100 -0.707100
vn 0.000100 -0.687600 -0.726100
vn -0.000000 -0.687500 -0.726100
vn 0.000100 0.687900 0.725800
vn -0.000100 0.707100 0.707100
vn -0.000100 1.000000 -0.000000
vn -0.716400 0.697700 -0.000000
vn -0.707100 0.707100 -0.000000
vn 0.716900 -0.697200 -0.000000
vn 0.707100 -0.707100 0.000000
vn 0.716900 -0.697100 0.000000
vn 0.707200 -0.707000 0.000000
vn -0.716400 0.697700 -0.000100
vn -0.726100 -0.687600 -0.000000
vn -0.707100 -0.707100 0.000000
vn 0.725800 0.687900 0.000000
vn 0.707100 0.707100 -0.000000
vn -0.707100 -0.707100 0.000100
vn -0.726100 -0.687600 -0.000100
vn -0.726100 -0.687500 0.000000
vn 0.725800 0.687900 -0.000100
vn 0.707100 0.707100 0.000100
vn 0.000000 1.000000 0.000100
vn 0.726100 -0.687600 0.000000
vn -0.725800 0.687900 -0.000000
vn 0.707100 -0.707100 -0.000100
vn 0.726100 -0.687600 0.000100
vn 0.726100 -0.687500 -0.000000
vn -0.725800 0.687900 0.000100
vn -0.707100 0.707100 -0.000100
vn 0.716400 0.697700 0.000000
vn -0.716900 -0.697200 0.000000
vn -0.716900 -0.697100 -0.000000
vn -0.707200 -0.707000 -0.000000
vn 0.716400 0.697700 0.000100
vn -0.000000 1.000000 -0.000100
vn -0.349800 0.732800 0.583600
vn 0.626000 0.732800 -0.266600
vn -0.663100 0.732800 -0.152400
vn -0.060100 0.732800 -0.677800
usemtl watertower.001
s 1
f 1/1/1 2/2/1 3/3/1
f 1/1/1 4/4/1 2/2/1
f 1/1/1 5/5/1 6/6/1
f 1/1/1 7/7/1 5/5/1
f 1/1/1 8/8/1 7/7/1
f 1/1/1 9/9/1 8/8/1
f 1/1/1 10/10/1 9/9/1
f 1/1/1 11/11/1 10/10/1
f 1/1/1 12/12/1 11/11/1
f 1/1/1 13/13/1 12/12/1
f 1/1/1 14/14/1 13/13/1
f 1/1/1 15/15/1 14/14/1
f 1/1/1 16/16/1 15/15/1
f 1/1/1 17/17/1 16/16/1
f 1/1/1 18/18/1 17/17/1
f 1/1/1 3/3/1 18/18/1
f 19/19/2 20/20/3 21/21/2
f 19/19/2 22/22/4 20/20/3
f 22/22/4 23/23/5 20/20/3
f 22/22/4 24/24/4 23/23/5
f 24/24/4 25/25/6 23/23/5
f 24/24/4 26/26/7 25/25/6
f 26/26/7 27/27/8 25/25/6
f 26/26/7 28/28/9 27/27/8
f 28/28/9 29/29/10 27/27/8
f 28/28/9 30/30/11 29/29/10
f 30/30/11 31/31/12 29/29/10
f 30/30/11 32/32/13 31/31/12
f 32/32/13 33/33/14 31/31/12
f 32/32/13 34/34/15 33/33/14
f 34/34/15 35/35/16 33/33/14
f 34/34/15 36/36/13 35/35/16
f 36/36/13 37/37/17 35/35/16
f 36/36/13 38/38/17 37/37/17
f 38/38/17 39/39/18 37/37/17
f 38/38/17 40/40/19 39/39/18
f 40/40/19 41/41/20 39/39/18
f 40/40/19 42/42/19 41/41/20
f 42/42/19 43/43/21 41/41/20
f 42/42/19 44/44/19 43/43/21
f 44/44/19 45/45/22 43/43/21
f 44/44/19 46/46/23 45/45/22
f 46/46/23 47/47/24 45/45/22
f 46/46/23 48/48/25 47/47/24
f 48/48/25 49/49/26 47/47/24
f 48/48/25 50/50/27 49/49/26
f 50/50/27 51/51/28 49/49/26
f 50/50/27 52/52/27 51/51/28
f 52/52/27 53/53/29 51/51/28
f 52/52/27 54/54/30 53/53/29
f 54/54/30 21/21/2 53/53/29
f 54/54/30 19/19/2 21/21/2
f 22/22/4 19/19/2 3/3/1
f 3/3/1 2/2/1 22/22/4
f 24/24/4 22/22/4 2/2/1
f 2/2/1 4/4/1 24/24/4
f 26/26/4 24/24/4 4/4/1
f 4/4/1 1/1/1 26/26/4
f 28/28/9 26/26/4 1/1/1
f 1/1/1 6/6/1 28/28/9
f 30/30/11 28/28/9 6/6/1
f 6/6/1 5/5/1 30/30/11
f 32/32/13 30/30/11 5/5/1
f 5/5/1 7/7/1 32/32/13
f 34/34/13 32/32/13 7/7/1
f 7/7/1 8/8/1 34/34/13
f 36/36/13 34/34/13 8/8/1
f 8/8/1 9/9/1 36/36/13
f 38/38/17 36/36/13 9/9/1
f 9/9/1 10/10/1 38/38/17
f 40/40/19 38/38/17 10/10/1
f 10/10/1 11/11/1 40/40/19
f 42/42/19 40/40/19 11/11/1
f 11/11/1 12/12/1 42/42/19
f 44/44/19 42/42/19 12/12/1
f 12/12/1 13/13/1 44/44/19
f 46/46/23 44/44/19 13/13/1
f 13/13/1 14/14/1 46/46/23
f 48/48/25 46/46/23 14/14/1
f 14/14/1 15/15/1 48/48/25
f 50/50/27 48/48/25 15/15/1
f 15/15/1 16/16/1 50/50/27
f 52/52/27 50/50/27 16/16/1
f 16/16/1 17/17/1 52/52/27
f 54/54/27 52/52/27 17/17/1
f 17/17/1 18/18/1 54/54/27
f 19/19/2 54/54/27 18/18/1
f 18/18/1 3/3/1 19/19/2
f 55/55/1 56/56/1 57/57/1
f 57/57/1 58/58/1 55/55/1
f 55/55/1 58/58/1 59/59/31
f 59/59/31 60/60/32 55/55/1
f 58/58/1 57/57/33 61/61/34
f 61/61/34 59/59/31 58/58/1
f 57/57/1 56/56/1 62/62/35
f 62/62/35 61/61/36 57/57/1
f 56/56/33 55/55/1 60/60/32
f 60/60/32 62/62/35 56/56/33
f 63/63/1 64/64/1 65/65/1
f 65/65/1 66/66/1 63/63/1
f 63/63/1 66/66/1 67/67/37
f 67/67/37 68/68/38 63/63/1
f 66/66/1 65/65/39 69/69/40
f 69/69/40 67/67/37 66/66/1
f 65/65/1 64/64/1 70/70/41
f 70/70/41 69/69/42 65/65/1
f 64/64/39 63/63/1 68/68/38
f 68/68/38 70/70/41 64/64/39
f 71/71/1 72/72/1 73/73/1
f 73/73/1 74/74/1 71/71/1
f 71/71/1 74/74/1 75/75/43
f 75/75/43 76/76/44 71/71/1
f 74/74/1 73/73/45 77/77/46
f 77/77/46 75/75/43 74/74/1
f 73/73/1 72/72/1 78/78/47
f 78/78/47 77/77/48 73/73/1
f 72/72/45 71/71/1 76/76/44
f 76/76/44 78/78/47 72/72/45
f 79/79/1 80/80/1 81/81/1
f 81/81/1 82/82/1 79/79/1
f 79/79/1 82/82/1 83/83/49
f 83/83/49 84/84/50 79/79/1
f 82/82/1 81/81/51 85/85/52
f 85/85/52 83/83/49 82/82/1
f 81/81/1 80/80/1 86/86/53
f 86/86/53 85/85/54 81/81/1
f 80/80/51 79/79/1 84/84/50
f 84/84/50 86/86/53 80/80/51
f 87/87/1 88/88/1 89/89/1
f 87/87/1 90/90/1 88/88/1
f 87/87/1 91/91/1 90/90/1
f 87/87/1 92/92/1 91/91/1
f 87/87/1 93/93/1 92/92/1
f 87/87/1 94/94/1 93/93/1
f 87/87/1 95/95/1 94/94/1
f 87/87/1 96/96/1 95/95/1
f 87/87/1 97/97/1 98/98/1
f 87/87/1 99/99/1 97/97/1
f 87/87/1 100/100/1 99/99/1
f 87/87/1 101/101/1 100/100/1
f 87/87/1 102/102/1 101/101/1
f 87/87/1 103/103/1 102/102/1
f 87/87/1 104/104/1 103/103/1
f 87/87/1 89/89/1 104/104/1
f 89/105/1 105/106/55 106/107/2
f 89/105/1 88/108/33 105/106/55
f 88/108/33 107/109/4 105/106/55
f 88/108/33 90/110/1 107/109/4
f 90/110/1 108/111/4 107/109/4
f 90/110/1 91/112/56 108/111/4
f 91/112/56 109/113/9 108/111/4
f 91/112/56 92/114/57 109/113/9
f 92/114/57 110/115/11 109/113/9
f 92/114/57 93/116/58 110/115/11
f 93/116/58 111/117/13 110/115/11
f 93/116/58 94/118/1 111/117/13
f 94/118/1 112/119/13 111/117/13
f 94/118/1 95/120/1 112/119/13
f 95/120/1 113/121/13 112/119/13
f 95/120/1 96/122/33 113/121/13
f 96/122/33 114/123/17 113/121/13
f 96/122/33 87/124/45 114/123/17
f 87/124/45 115/125/19 114/123/17
f 87/124/45 98/126/59 115/125/19
f 98/126/59 116/127/19 115/125/19
f 98/126/59 97/128/60 116/127/19
f 97/128/60 117/129/19 116/127/19
f 97/128/60 99/130/61 117/129/19
f 99/130/61 118/131/23 117/129/19
f 99/130/61 100/132/51 118/131/23
f 100/132/51 119/133/25 118/131/23
f 100/132/51 101/134/51 119/133/25
f 101/134/51 120/135/30 119/133/25
f 101/134/51 102/136/62 120/135/30
f 102/136/62 121/137/27 120/135/30
f 102/136/62 103/138/63 121/137/27
f 103/139/63 122/140/27 121/141/27
f 103/139/63 104/142/1 122/140/27
f 104/142/1 106/107/2 122/140/27
f 104/142/1 89/105/1 106/107/2
f 123/143/64 106/144/65 105/145/4
f 123/143/64 105/145/4 107/146/4
f 123/143/64 107/146/4 108/147/4
f 123/143/64 108/147/4 109/148/9
f 123/143/64 109/148/9 110/149/11
f 123/143/64 110/149/11 111/150/13
f 123/143/64 111/150/13 112/151/13
f 123/143/64 112/151/13 113/152/13
f 123/143/64 113/152/13 114/153/66
f 123/143/64 114/153/66 115/154/19
f 123/143/64 115/154/19 116/155/19
f 123/143/64 116/155/19 117/156/19
f 123/143/64 117/156/19 118/157/23
f 123/143/64 118/157/23 119/158/25
f 123/143/64 119/158/25 120/159/27
f 123/143/64 120/159/27 121/160/27
f 123/143/64 121/160/27 122/161/27
f 123/143/64 122/161/27 106/144/65
f 124/162/1 125/163/1 126/164/1
f 124/162/1 127/165/1 125/163/1
f 124/162/1 128/166/1 127/165/1
f 124/162/1 129/167/1 128/166/1
f 124/162/1 130/168/1 129/167/1
f 124/162/1 131/169/1 130/168/1
f 124/162/1 132/170/1 131/169/1
f 124/162/1 133/171/1 132/170/1
f 124/162/1 134/172/1 133/171/1
f 124/162/1 135/173/1 134/172/1
f 124/162/1 136/174/1 135/173/1
f 124/162/1 137/175/1 136/174/1
f 124/162/1 138/176/1 137/175/1
f 124/162/1 139/177/1 140/178/1
f 124/162/1 141/179/1 139/177/1
f 124/162/1 126/164/1 141/179/1
f 126/180/33 142/181/55 143/182/2
f 126/180/33 125/183/1 142/181/55
f 125/183/1 144/184/4 142/181/55
f 125/183/1 127/185/56 144/184/4
f 127/186/56 145/187/4 144/188/4
f 127/186/56 128/189/56 145/187/4
f 128/189/56 146/190/9 145/187/4
f 128/189/56 129/191/39 146/190/9
f 129/191/39 147/192/67 146/190/9
f 129/191/39 130/193/39 147/192/67
f 130/193/39 148/194/68 147/192/67
f 130/193/39 131/195/69 148/194/68
f 131/195/69 149/196/13 148/194/68
f 131/195/69 132/197/45 149/196/13
f 132/197/45 150/198/13 149/196/13
f 132/197/45 133/199/62 150/198/13
f 133/199/62 151/200/17 150/198/13
f 133/199/62 134/201/33 151/200/17
f 134/201/33 152/202/70 151/200/17
f 134/201/33 135/203/1 152/202/70
f 135/203/1 153/204/19 152/202/70
f 135/203/1 136/205/1 153/204/19
f 136/205/1 154/206/19 153/204/19
f 136/205/1 137/207/1 154/206/19
f 137/207/1 155/208/23 154/206/19
f 137/207/1 138/209/51 155/208/23
f 138/209/51 156/210/25 155/208/23
f 138/209/51 124/211/1 156/210/25
f 124/211/1 157/212/30 156/210/25
f 124/211/1 140/213/71 157/212/30
f 140/213/71 158/214/27 157/212/30
f 140/213/71 139/215/72 158/214/27
f 139/215/72 159/216/27 158/214/27
f 139/215/72 141/217/1 159/216/27
f 141/217/1 143/182/2 159/216/27
f 141/217/1 126/180/33 143/182/2
f 143/218/2 142/219/4 160/220/73
f 142/219/4 144/221/4 160/220/73
f 144/221/4 145/222/4 160/220/73
f 145/222/4 146/223/74 160/220/73
f 146/223/74 147/224/75 160/220/73
f 147/224/75 148/225/13 160/220/73
f 148/225/13 149/226/13 160/220/73
f 149/226/13 150/227/13 160/220/73
f 150/227/13 151/228/17 160/220/73
f 151/228/17 152/229/19 160/220/73
f 152/229/19 153/230/19 160/220/73
f 153/230/19 154/231/19 160/220/73
f 154/231/19 155/232/76 160/220/73
f 155/232/76 156/233/77 160/220/73
f 156/233/77 157/234/27 160/220/73
f 157/234/27 158/235/27 160/220/73
f 158/235/27 159/236/27 160/220/73
f 159/236/27 143/218/2 160/220/73
f 161/237/17 162/238/78 163/239/79
f 163/239/79 164/240/80 161/237/17
f 164/240/80 163/239/79 165/241/27
f 165/241/27 166/242/27 164/240/80
f 166/243/27 165/244/27 167/245/4
f 167/245/4 168/246/55 166/243/27
f 168/246/55 167/245/4 169/247/81
f 169/247/81 170/248/82 168/246/55
f 170/248/82 169/247/81 162/238/78
f 162/238/78 161/237/17 170/248/82
f 162/249/78 171/250/83 172/251/84
f 172/251/84 163/252/79 162/249/78
f 163/252/79 172/251/84 173/253/85
f 173/253/85 165/254/27 163/252/79
f 165/255/27 173/256/85 174/257/86
f 174/257/86 167/258/4 165/255/27
f 167/258/4 174/257/86 175/259/87
f 175/259/87 169/260/88 167/258/4
f 169/260/88 175/259/87 171/250/83
f 171/250/83 162/249/78 169/260/88
f 171/261/83 176/262/89 177/263/90
f 177/263/90 172/264/91 171/261/83
f 172/265/91 177/266/90 178/267/92
f 178/267/92 173/268/85 172/265/91
f 173/268/85 178/267/92 179/269/93
f 179/269/93 174/270/86 173/268/85
f 174/270/86 179/269/93 180/271/94
f 180/271/94 175/272/87 174/270/86
f 175/272/87 180/271/94 176/262/89
f 176/262/89 171/261/83 175/272/87
f 176/273/89 181/274/95 182/275/96
f 182/275/96 177/276/97 176/273/89
f 177/277/97 182/278/96 183/279/98
f 183/279/98 178/280/99 177/277/97
f 178/280/99 183/279/98 184/281/100
f 184/281/100 179/282/93 178/280/99
f 179/282/93 184/281/100 185/283/101
f 185/283/101 180/284/94 179/282/93
f 180/284/94 185/283/101 181/274/95
f 181/274/95 176/273/89 180/284/94
f 181/285/95 186/286/102 187/287/103
f 187/287/103 182/288/96 181/285/95
f 182/289/96 187/290/103 188/291/104
f 188/291/104 183/292/98 182/289/96
f 183/292/98 188/291/104 189/293/105
f 189/293/105 184/294/106 183/292/98
f 184/294/106 189/293/105 190/295/107
f 190/295/107 185/296/101 184/294/106
f 185/296/101 190/295/107 186/286/102
f 186/286/102 181/285/95 185/296/101
f 186/297/108 191/298/109 192/299/110
f 192/299/110 187/300/111 186/297/108
f 187/300/111 192/299/110 193/301/112
f 193/301/112 188/302/113 187/300/111
f 188/302/113 193/301/112 194/303/114
f 194/303/114 189/304/115 188/302/113
f 189/304/115 194/303/114 195/305/116
f 195/305/116 190/306/107 189/304/115
f 190/306/107 195/305/116 191/307/109
f 191/307/109 186/308/108 190/306/107
f 191/309/117 196/310/118 197/311/119
f 197/311/119 192/312/110 191/309/117
f 192/312/110 197/311/119 198/313/120
f 198/313/120 193/314/121 192/312/110
f 193/314/121 198/313/120 199/315/122
f 199/315/122 194/316/123 193/314/121
f 194/316/123 199/315/122 200/317/124
f 200/317/124 195/318/116 194/316/123
f 195/319/116 200/320/124 196/310/118
f 196/310/118 191/309/117 195/319/116
f 164/321/125 166/322/27 161/323/126
f 166/322/27 168/324/4 161/323/126
f 168/324/4 170/325/127 161/323/126
f 198/326/128 197/327/129 196/328/130
f 199/329/122 198/326/128 196/328/130
f 200/330/124 199/329/122 196/328/130
f 201/331/1 202/332/1 203/333/131
f 203/333/131 204/334/132 201/331/1
f 204/334/132 203/333/131 205/335/133
f 205/335/133 206/336/134 204/334/132
f 206/336/134 205/335/133 207/337/135
f 207/337/135 208/338/136 206/336/134
f 208/338/136 207/337/135 209/339/137
f 209/339/137 210/340/138 208/338/136
f 210/340/138 209/339/137 202/332/1
f 202/332/1 201/331/1 210/340/138
f 202/332/1 211/341/139 212/342/140
f 212/342/140 203/333/141 202/332/1
f 203/333/141 212/342/140 213/343/142
f 213/343/142 205/335/143 203/333/141
f 205/335/143 213/343/142 214/344/144
f 214/344/144 207/337/135 205/335/143
f 207/337/135 214/344/144 215/345/145
f 215/345/145 209/339/137 207/337/135
f 209/339/137 215/345/145 211/341/139
f 211/341/139 202/332/1 209/339/137
f 211/341/146 216/346/147 217/347/148
f 217/347/148 212/342/149 211/341/146
f 212/342/149 217/347/148 218/348/150
f 218/348/150 213/343/142 212/342/149
f 213/343/142 218/348/150 219/349/151
f 219/349/151 214/344/152 213/343/142
f 214/344/152 219/349/151 220/350/153
f 220/350/153 215/345/154 214/344/152
f 215/345/154 220/350/153 216/346/147
f 216/346/147 211/341/146 215/345/154
f 221/351/73 222/352/155 223/353/156
f 221/351/73 224/354/157 222/352/155
f 221/351/73 225/355/158 224/354/157
f 221/351/73 226/356/159 225/355/158
f 221/351/73 223/353/156 226/356/159
f 227/357/17 228/358/160 229/359/161
f 229/359/161 230/360/80 227/357/17
f 230/360/80 229/359/161 231/361/27
f 231/361/27 232/362/27 230/360/80
f 232/362/27 231/361/27 233/363/4
f 233/363/4 234/364/55 232/362/27
f 234/364/55 233/363/4 235/365/162
f 235/365/162 236/366/163 234/364/55
f 236/367/163 235/368/162 228/358/160
f 228/358/160 227/357/17 236/367/163
f 228/369/160 237/370/164 238/371/165
f 238/371/165 229/372/161 228/369/160
f 229/372/161 238/371/165 239/373/166
f 239/373/166 231/374/27 229/372/161
f 231/374/27 239/373/166 240/375/167
f 240/375/167 233/376/4 231/374/27
f 233/376/4 240/375/167 241/377/168
f 241/377/168 235/378/162 233/376/4
f 235/379/162 241/380/168 237/370/164
f 237/370/164 228/369/160 235/379/162
f 237/381/169 242/382/170 243/383/171
f 243/383/171 238/384/172 237/381/169
f 238/384/172 243/383/171 244/385/173
f 244/385/173 239/386/166 238/384/172
f 239/386/166 244/385/173 245/387/174
f 245/387/174 240/388/175 239/386/166
f 240/388/175 245/387/174 246/389/176
f 246/389/176 241/390/177 240/388/175
f 241/391/177 246/392/176 242/382/170
f 242/382/170 237/381/169 241/391/177
f 242/393/170 247/394/133 248/395/178
f 248/395/178 243/396/179 242/393/170
f 243/396/179 248/395/178 249/397/180
f 249/397/180 244/398/181 243/396/179
f 244/398/181 249/397/180 250/399/182
f 250/399/182 245/400/174 244/398/181
f 245/401/174 250/402/182 251/403/183
f 251/403/183 246/404/184 245/401/174
f 246/404/184 251/403/183 247/394/133
f 247/394/133 242/393/170 246/404/184
f 247/405/103 252/406/185 253/407/186
f 253/407/186 248/408/178 247/405/103
f 248/408/178 253/407/186 254/409/187
f 254/409/187 249/410/188 248/408/178
f 249/410/188 254/409/187 255/411/189
f 255/411/189 250/412/182 249/410/188
f 250/413/182 255/414/189 256/415/190
f 256/415/190 251/416/183 250/413/182
f 251/416/183 256/415/190 252/406/185
f 252/406/185 247/405/103 251/416/183
f 252/417/185 257/418/191 258/419/192
f 258/419/192 253/420/186 252/417/185
f 253/420/186 258/419/192 259/421/193
f 259/421/193 254/422/194 253/420/186
f 254/422/194 259/421/193 260/423/195
f 260/423/195 255/424/189 254/422/194
f 255/424/189 260/423/195 261/425/196
f 261/425/196 256/426/190 255/424/189
f 256/427/190 261/428/196 257/418/191
f 257/418/191 252/417/185 256/427/190
f 257/429/197 262/430/198 263/431/199
f 263/431/199 258/432/192 257/429/197
f 258/432/192 263/431/199 264/433/200
f 264/433/200 259/434/193 258/432/192
f 259/434/193 264/433/200 265/435/201
f 265/435/201 260/436/202 259/434/193
f 260/436/202 265/435/201 266/437/203
f 266/437/203 261/438/196 260/436/202
f 261/439/196 266/440/203 262/430/198
f 262/430/198 257/429/197 261/439/196
f 230/441/80 232/442/27 227/443/126
f 232/442/27 234/444/4 227/443/126
f 234/444/4 236/445/204 227/443/126
f 264/446/205 263/447/206 262/448/207
f 265/449/201 264/446/205 262/448/207
f 266/450/203 265/449/201 262/448/207
f 267/451/17 268/452/208 269/453/209
f 269/453/209 270/454/80 267/451/17
f 270/455/80 269/456/209 271/457/27
f 271/457/27 272/458/27 270/455/80
f 272/458/27 271/457/27 273/459/4
f 273/459/4 274/460/4 272/458/27
f 274/460/4 273/459/4 275/461/210
f 275/461/210 276/462/211 274/460/4
f 276/462/211 275/461/210 268/452/208
f 268/452/208 267/451/17 276/462/211
f 268/463/212 277/464/213 278/465/214
f 278/465/214 269/466/209 268/463/212
f 269/467/209 278/468/214 279/469/215
f 279/469/215 271/470/27 269/467/209
f 271/470/27 279/469/215 280/471/216
f 280/471/216 273/472/4 271/470/27
f 273/472/4 280/471/216 281/473/217
f 281/473/217 275/474/210 273/472/4
f 275/474/210 281/473/217 277/464/213
f 277/464/213 268/463/212 275/474/210
f 277/475/218 282/476/219 283/477/220
f 283/477/220 278/478/221 277/475/218
f 278/478/221 283/477/220 284/479/222
f 284/479/222 279/480/223 278/478/221
f 279/481/223 284/482/222 285/483/224
f 285/483/224 280/484/216 279/481/223
f 280/484/216 285/483/224 286/485/225
f 286/485/225 281/486/217 280/484/216
f 281/486/217 286/485/225 282/476/219
f 282/476/219 277/475/218 281/486/217
f 270/487/80 272/488/27 267/489/66
f 272/488/27 274/490/4 267/489/66
f 274/490/4 276/491/204 267/489/66
f 284/492/226 283/493/220 282/494/227
f 285/495/228 284/492/226 282/494/227
f 286/496/225 285/495/228 282/494/227
f 287/497/1 288/498/1 289/499/1
f 289/499/1 290/500/1 287/497/1
f 291/501/73 292/502/73 293/503/73
f 293/503/73 294/504/73 291/501/73
f 287/497/1 290/500/1 292/502/73
f 292/502/73 291/501/73 287/497/1
f 290/500/1 289/499/1 293/503/73
f 293/503/73 292/502/73 290/500/1
f 288/498/1 287/497/1 291/501/73
f 291/501/73 294/504/73 288/498/1
f 295/505/1 296/506/1 297/507/1
f 297/507/1 298/508/1 295/505/1
f 299/509/73 300/510/73 301/511/73
f 301/511/73 302/512/73 299/509/73
f 295/505/1 298/508/1 300/510/73
f 300/510/73 299/509/229 295/505/1
f 298/508/1 297/507/1 301/511/73
f 301/511/73 300/510/73 298/508/1
f 296/506/1 295/505/1 299/509/73
f 299/509/73 302/512/73 296/506/1
f 303/513/230 304/514/231 305/515/230
f 305/515/230 306/516/231 303/513/230
f 307/517/232 308/518/233 309/519/232
f 309/519/232 310/520/233 307/517/232
f 306/516/234 305/515/235 309/519/232
f 309/519/232 308/518/233 306/516/234
f 304/514/231 303/513/236 307/517/237
f 307/517/237 310/520/238 304/514/231
f 311/521/239 312/522/240 313/523/241
f 313/523/241 314/524/240 311/521/239
f 315/525/242 316/526/243 317/527/242
f 317/527/242 318/528/243 315/525/242
f 314/524/240 313/523/241 317/527/244
f 317/527/244 316/526/245 314/524/240
f 312/522/240 311/521/246 315/525/242
f 315/525/242 318/528/243 312/522/240
f 319/529/1 320/530/1 321/531/1
f 321/531/1 322/532/1 319/529/1
f 323/533/73 324/534/73 325/535/73
f 325/535/73 326/536/73 323/533/73
f 319/529/1 322/532/1 324/534/73
f 324/534/73 323/533/73 319/529/1
f 322/532/1 321/531/1 325/535/73
f 325/535/73 324/534/73 322/532/1
f 320/530/1 319/529/1 323/533/73
f 323/533/73 326/536/73 320/530/1
f 327/537/1 328/538/1 329/539/1
f 329/539/1 330/540/1 327/537/1
f 331/541/73 332/542/73 333/543/73
f 333/543/73 334/544/73 331/541/73
f 327/537/1 330/540/1 332/542/73
f 332/542/73 331/541/73 327/537/1
f 330/540/1 329/539/1 333/543/73
f 333/543/73 332/542/73 330/540/1
f 328/538/1 327/537/1 331/541/73
f 331/541/73 334/544/73 328/538/1
f 335/545/247 336/546/233 337/547/248
f 337/547/248 338/548/233 335/545/247
f 339/549/249 340/550/231 341/551/249
f 341/551/249 342/552/231 339/549/249
f 338/548/233 337/547/248 341/551/250
f 341/551/250 340/550/251 338/548/233
f 336/546/233 335/545/252 339/549/249
f 339/549/249 342/552/231 336/546/233
f 343/553/1 344/554/1 345/555/1
f 345/555/1 346/556/1 343/553/1
f 347/557/73 348/558/73 349/559/73
f 349/559/73 350/560/73 347/557/73
f 343/553/1 346/556/1 348/558/73
f 348/558/73 347/557/73 343/553/1
f 346/556/1 345/555/1 349/559/73
f 349/559/73 348/558/73 346/556/1
f 344/554/1 343/553/1 347/557/73
f 347/557/73 350/560/73 344/554/1
f 351/561/253 352/562/243 353/563/253
f 353/563/253 354/564/243 351/561/253
f 355/565/254 356/566/240 357/567/254
f 357/567/254 358/568/240 355/565/254
f 354/564/255 353/563/256 357/567/254
f 357/567/254 356/566/240 354/564/255
f 352/562/243 351/561/257 355/565/258
f 355/565/258 358/568/259 352/562/243
f 359/569/1 360/570/1 361/571/1
f 361/571/1 362/572/1 359/569/1
f 363/573/73 364/574/73 365/575/73
f 365/575/73 366/576/73 363/573/73
f 359/569/1 362/572/1 364/574/73
f 364/574/73 363/573/260 359/569/1
f 362/572/1 361/571/1 365/575/73
f 365/575/73 364/574/73 362/572/1
f 360/570/1 359/569/1 363/573/73
f 363/573/73 366/576/73 360/570/1
f 329/577/1 367/578/1 319/579/1
f 319/579/1 368/580/1 329/577/1
f 333/581/73 369/582/73 323/583/73
f 323/583/73 370/584/73 333/581/73
f 329/577/1 368/580/1 369/582/73
f 369/582/73 333/581/73 329/577/1
f 368/580/1 319/579/1 323/583/73
f 323/583/73 369/582/73 368/580/1
f 367/578/1 329/577/1 333/581/73
f 333/581/73 370/584/73 367/578/1
f 371/585/261 372/586/262 373/587/261
f 373/587/261 374/588/262 371/585/261
f 375/589/263 376/590/264 377/591/263
f 377/591/263 378/592/264 375/589/263
f 374/588/262 373/587/261 377/591/265
f 377/591/265 376/590/266 374/588/262
f 372/586/262 371/585/267 375/589/263
f 375/589/263 378/592/264 372/586/262
f 345/593/1 379/594/1 287/595/1
f 287/595/1 380/596/1 345/593/1
f 349/597/73 381/598/73 291/599/73
f 291/599/73 382/600/73 349/597/73
f 345/593/1 380/596/1 381/598/73
f 381/598/73 349/597/73 345/593/1
f 380/596/1 287/595/1 291/599/73
f 291/599/73 381/598/73 380/596/1
f 379/594/1 345/593/1 349/597/73
f 349/597/73 382/600/73 379/594/1
f 383/601/268 384/602/269 385/603/268
f 385/603/268 386/604/269 383/601/268
f 387/605/270 388/606/271 389/607/270
f 389/607/270 390/608/271 387/605/270
f 386/604/272 385/603/273 389/607/270
f 389/607/270 388/606/271 386/604/272
f 384/602/269 383/601/274 387/605/275
f 387/605/275 390/608/276 384/602/269
f 361/609/1 391/610/1 295/611/1
f 295/611/1 392/612/1 361/609/1
f 365/613/73 393/614/73 299/615/73
f 299/615/73 394/616/73 365/613/73
f 361/609/1 392/612/1 393/614/73
f 393/614/73 365/613/277 361/609/1
f 392/612/1 295/611/1 299/615/73
f 299/615/73 393/614/73 392/612/1
f 391/610/1 361/609/1 365/613/73
f 365/613/73 394/616/73 391/610/1
f 395/617/278 396/618/264 397/619/278
f 397/619/278 398/620/264 395/617/278
f 399/621/279 400/622/262 401/623/279
f 401/623/279 402/624/262 399/621/279
f 398/620/280 397/619/281 401/623/279
f 401/623/279 400/622/262 398/620/280
f 396/618/264 395/617/282 399/621/283
f 399/621/283 402/624/284 396/618/264
f 321/625/1 403/626/1 327/627/1
f 327/627/1 404/628/1 321/625/1
f 325/629/73 405/630/73 331/631/73
f 331/631/73 406/632/73 325/629/73
f 321/625/1 404/628/1 405/630/73
f 405/630/73 325/629/73 321/625/1
f 404/628/1 327/627/1 331/631/73
f 331/631/73 405/630/73 404/628/1
f 403/626/1 321/625/1 325/629/73
f 325/629/73 406/632/73 403/626/1
f 407/633/285 408/634/271 409/635/285
f 409/635/285 410/636/271 407/633/285
f 411/637/286 412/638/269 413/639/286
f 413/639/286 414/640/269 411/637/286
f 410/636/271 409/635/285 413/639/287
f 413/639/287 412/638/288 410/636/271
f 408/634/271 407/633/289 411/637/286
f 411/637/286 414/640/269 408/634/271
f 289/641/1 415/642/1 343/643/1
f 343/643/1 416/644/1 289/641/1
f 293/645/73 417/646/73 347/647/73
f 347/647/73 418/648/73 293/645/73
f 289/641/1 416/644/1 417/646/73
f 417/646/73 293/645/73 289/641/1
f 416/644/1 343/643/1 347/647/73
f 347/647/73 417/646/73 416/644/1
f 415/642/1 289/641/1 293/645/73
f 293/645/73 418/648/73 415/642/1
f 297/649/1 419/650/1 359/651/1
f 359/651/1 420/652/1 297/649/1
f 301/653/73 421/654/73 363/655/73
f 363/655/73 422/656/73 301/653/73
f 297/649/1 420/652/1 421/654/73
f 421/654/73 301/653/290 297/649/1
f 420/652/1 359/651/1 363/655/73
f 363/655/73 421/654/73 420/652/1
f 419/650/1 297/649/1 301/653/73
f 301/653/73 422/656/73 419/650/1
f 223/353/156 222/352/291 226/352/292
f 222/352/291 224/354/293 226/354/292
f 224/354/293 225/355/294 226/355/292
f 423/657/1 424/658/1 425/659/1
f 425/659/1 426/660/1 423/657/1
f 427/661/73 428/662/73 429/663/73
f 429/663/73 430/664/73 427/661/73
f 423/665/1 426/666/1 428/667/73
f 428/667/73 427/668/73 423/665/1
f 426/669/1 425/670/1 429/671/73
f 429/671/73 428/672/73 426/669/1
f 425/670/1 424/673/1 430/674/73
f 430/674/73 429/671/73 425/670/1
f 424/675/1 423/665/1 427/668/73
f 427/668/73 430/676/73 424/675/1
f 431/657/1 432/658/1 433/659/1
f 433/659/1 434/660/1 431/657/1
f 435/661/73 436/662/73 437/663/73
f 437/663/73 438/664/73 435/661/73
f 431/665/1 434/666/1 436/667/73
f 436/667/73 435/668/73 431/665/1
f 434/669/1 433/670/1 437/671/73
f 437/671/73 436/672/73 434/669/1
f 433/670/1 432/673/1 438/674/73
f 438/674/73 437/671/73 433/670/1
f 432/675/1 431/665/1 435/668/73
f 435/668/73 438/676/73 432/675/1
f 439/657/1 440/658/1 441/659/1
f 441/659/1 442/660/1 439/657/1
f 443/661/73 444/662/73 445/663/73
f 445/663/73 446/664/73 443/661/73
f 439/665/1 442/666/1 444/667/73
f 444/667/73 443/668/73 439/665/1
f 442/669/1 441/670/1 445/671/73
f 445/671/73 444/672/73 442/669/1
f 441/670/1 440/673/1 446/674/73
f 446/674/73 445/671/73 441/670/1
f 440/675/1 439/665/1 443/668/73
f 443/668/73 446/676/73 440/675/1
f 447/657/1 448/658/1 449/659/1
f 449/659/1 450/660/1 447/657/1
f 451/661/73 452/662/73 453/663/73
f 453/663/73 454/664/73 451/661/73
f 447/665/1 450/666/1 452/667/73
f 452/667/73 451/668/73 447/665/1
f 450/669/1 449/670/1 453/671/73
f 453/671/73 452/672/73 450/669/1
f 449/670/1 448/673/1 454/674/73
f 454/674/73 453/671/73 449/670/1
f 448/675/1 447/665/1 451/668/73
f 451/668/73 454/676/73 448/675/1
f 455/677/18 456/678/17 457/679/17
f 458/680/18 456/678/17 455/677/18
f 459/681/20 458/680/18 455/677/18
f 460/682/20 458/680/18 459/681/20
f 461/683/21 460/682/20 459/681/20
f 462/684/21 460/682/20 461/683/21
f 463/685/22 462/684/21 461/683/21
f 464/686/22 462/684/21 463/685/22
f 465/687/24 464/686/22 463/685/22
f 466/688/24 464/686/22 465/687/24
f 467/689/26 466/688/24 465/687/24
f 468/690/26 466/688/24 467/689/26
f 469/691/28 468/690/26 467/689/26
f 470/692/28 468/690/26 469/691/28
f 471/693/29 470/692/28 469/691/28
f 472/694/29 470/692/28 471/693/29
f 473/695/2 472/694/29 471/693/29
f 474/696/2 472/694/29 473/695/2
f 475/697/3 474/696/2 473/695/2
f 476/698/3 474/696/2 475/697/3
f 477/699/5 476/698/3 475/697/3
f 478/700/5 476/698/3 477/699/5
f 479/701/6 478/700/5 477/699/5
f 480/702/6 478/700/5 479/701/6
f 481/703/8 480/702/6 479/701/6
f 482/704/8 480/702/6 481/703/8
f 483/705/10 482/704/8 481/703/8
f 484/706/10 482/704/8 483/705/10
f 485/707/12 484/706/10 483/705/10
f 486/708/12 484/706/10 485/707/12
f 487/709/14 486/708/12 485/707/12
f 488/710/14 486/708/12 487/709/14
f 489/711/16 488/710/14 487/709/14
f 490/712/16 488/710/14 489/711/16
f 457/679/17 490/712/16 489/711/16
f 456/678/17 490/712/16 457/679/17
f 491/713/2 492/714/3 493/715/2
f 491/713/2 494/716/3 492/714/3
f 494/716/3 495/717/5 492/714/3
f 494/716/3 496/718/5 495/717/5
f 496/718/5 497/719/6 495/717/5
f 496/718/5 498/720/6 497/719/6
f 498/720/6 499/721/8 497/719/6
f 498/720/6 500/722/8 499/721/8
f 500/722/8 501/723/10 499/721/8
f 500/722/8 502/724/10 501/723/10
f 502/724/10 503/725/12 501/723/10
f 502/724/10 504/726/12 503/725/12
f 504/726/12 505/727/14 503/725/12
f 504/726/12 506/728/14 505/727/14
f 506/728/14 507/729/16 505/727/14
f 506/728/14 508/730/16 507/729/16
f 508/730/16 509/731/17 507/729/16
f 508/730/16 510/732/17 509/731/17
f 510/732/17 511/733/18 509/731/17
f 510/732/17 512/734/18 511/733/18
f 512/734/18 513/735/20 511/733/18
f 512/734/18 514/736/20 513/735/20
f 514/736/20 515/737/21 513/735/20
f 514/736/20 516/738/21 515/737/21
f 516/738/21 517/739/22 515/737/21
f 516/738/21 518/740/22 517/739/22
f 518/740/22 519/741/24 517/739/22
f 518/740/22 520/742/24 519/741/24
f 520/742/24 521/743/26 519/741/24
f 520/742/24 522/744/26 521/743/26
f 522/744/26 523/745/28 521/743/26
f 522/744/26 524/746/28 523/745/28
f 524/746/28 525/747/29 523/745/28
f 524/746/28 526/748/29 525/747/29
f 526/748/29 493/715/2 525/747/29
f 526/748/29 491/713/2 493/715/2
