# Blender v2.74 (sub 0) OBJ File: ''
# www.blender.org
mtllib cube.mtl
o Cube
v 1.582637 -0.562302 -2.374219

v 1.582637 -0.562302 -0.374219

v -0.417363 -0.562302 -0.374219

v -0.417362 -0.562302 -2.374219

v 1.582638 1.437698 -2.374218

v 1.582637 1.437698 -0.374218

v -0.417363 1.437698 -0.374219

v -0.417363 1.437698 -2.374219

vn 0.000000 -1.000000 0.000000
vn 0.000000 1.000000 0.000000
vn 1.000000 0.000000 0.000000
vn -0.000000 0.000000 1.000000
vn -1.000000 -0.000000 -0.000000
vn 0.000000 0.000000 -1.000000
usemtl Material
s off
f 1//1 2//1 3//1
f 8//2 7//2 6//2
f 5//3 6//3 2//3
f 6//4 7//4 3//4
f 7//5 8//5 4//5
f 1//6 4//6 8//6
f 4//1 1//1 3//1
f 5//2 8//2 6//2
f 1//3 5//3 2//3
f 2//4 6//4 3//4
f 3//5 7//5 4//5
f 5//6 1//6 8//6