^C:\USERS\MATISS\DESKTOP\SNAKE\SNAKE\BULLET.CPP|C:\USERS\MATISS\DESKTOP\SNAKE\SNAKE\CAMERA.CPP|C:\USERS\MATISS\DESKTOP\SNAKE\SNAKE\DEBUG.CPP|C:\USERS\MATISS\DESKTOP\SNAKE\SNAKE\DYNAMICMESH.CPP|C:\USERS\MATISS\DESKTOP\SNAKE\SNAKE\HELPERS.CPP|C:\USERS\MATISS\DESKTOP\SNAKE\SNAKE\IMAGELOADING.CPP|C:\USERS\MATISS\DESKTOP\SNAKE\SNAKE\KEYBOARDINPUT.CPP|C:\USERS\MATISS\DESKTOP\SNAKE\SNAKE\LIGHT.CPP|C:\USERS\MATISS\DESKTOP\SNAKE\SNAKE\MAIN.CPP|C:\USERS\MATISS\DESKTOP\SNAKE\SNAKE\MESH.CPP|C:\USERS\MATISS\DESKTOP\SNAKE\SNAKE\MODELTRANSFORM.CPP|C:\USERS\MATISS\DESKTOP\SNAKE\SNAKE\MOUSEINPUT.CPP|C:\USERS\MATISS\DESKTOP\SNAKE\SNAKE\POINT.CPP|C:\USERS\MATISS\DESKTOP\SNAKE\SNAKE\PROJECTION.CPP|C:\USERS\MATISS\DESKTOP\SNAKE\SNAKE\RENDERING.CPP|C:\USERS\MATISS\DESKTOP\SNAKE\SNAKE\RENDEROPTIONS.CPP|C:\USERS\MATISS\DESKTOP\SNAKE\SNAKE\SHADERLOADER.CPP|C:\USERS\MATISS\DESKTOP\SNAKE\SNAKE\TEXTURE.CPP|C:\USERS\MATISS\DESKTOP\SNAKE\SNAKE\WINDOWOPTIONS.CPP
C:\USERS\MATISS\DESKTOP\SNAKE\SNAKE\RELEASE\VC120.PDB
C:\USERS\MATISS\DESKTOP\SNAKE\SNAKE\RELEASE\WINDOWOPTIONS.OBJ
C:\USERS\MATISS\DESKTOP\SNAKE\SNAKE\RELEASE\TEXTURE.OBJ
C:\USERS\MATISS\DESKTOP\SNAKE\SNAKE\RELEASE\SHADERLOADER.OBJ
C:\USERS\MATISS\DESKTOP\SNAKE\SNAKE\RELEASE\RENDEROPTIONS.OBJ
C:\USERS\MATISS\DESKTOP\SNAKE\SNAKE\RELEASE\RENDERING.OBJ
C:\USERS\MATISS\DESKTOP\SNAKE\SNAKE\RELEASE\PROJECTION.OBJ
C:\USERS\MATISS\DESKTOP\SNAKE\SNAKE\RELEASE\POINT.OBJ
C:\USERS\MATISS\DESKTOP\SNAKE\SNAKE\RELEASE\MOUSEINPUT.OBJ
C:\USERS\MATISS\DESKTOP\SNAKE\SNAKE\RELEASE\MODELTRANSFORM.OBJ
C:\USERS\MATISS\DESKTOP\SNAKE\SNAKE\RELEASE\MESH.OBJ
C:\USERS\MATISS\DESKTOP\SNAKE\SNAKE\RELEASE\MAIN.OBJ
C:\USERS\MATISS\DESKTOP\SNAKE\SNAKE\RELEASE\LIGHT.OBJ
C:\USERS\MATISS\DESKTOP\SNAKE\SNAKE\RELEASE\KEYBOARDINPUT.OBJ
C:\USERS\MATISS\DESKTOP\SNAKE\SNAKE\RELEASE\IMAGELOADING.OBJ
C:\USERS\MATISS\DESKTOP\SNAKE\SNAKE\RELEASE\HELPERS.OBJ
C:\USERS\MATISS\DESKTOP\SNAKE\SNAKE\RELEASE\DYNAMICMESH.OBJ
C:\USERS\MATISS\DESKTOP\SNAKE\SNAKE\RELEASE\DEBUG.OBJ
C:\USERS\MATISS\DESKTOP\SNAKE\SNAKE\RELEASE\CAMERA.OBJ
C:\USERS\MATISS\DESKTOP\SNAKE\SNAKE\RELEASE\BULLET.OBJ
^C:\USERS\MATISS\DESKTOP\SNAKE\SNAKE\BULLET.CPP
C:\USERS\MATISS\DESKTOP\SNAKE\SNAKE\RELEASE\VC120.PDB
^C:\USERS\MATISS\DESKTOP\SNAKE\SNAKE\CAMERA.CPP
C:\USERS\MATISS\DESKTOP\SNAKE\SNAKE\RELEASE\VC120.PDB
^C:\USERS\MATISS\DESKTOP\SNAKE\SNAKE\DEBUG.CPP
C:\USERS\MATISS\DESKTOP\SNAKE\SNAKE\RELEASE\VC120.PDB
^C:\USERS\MATISS\DESKTOP\SNAKE\SNAKE\DYNAMICMESH.CPP
C:\USERS\MATISS\DESKTOP\SNAKE\SNAKE\RELEASE\VC120.PDB
^C:\USERS\MATISS\DESKTOP\SNAKE\SNAKE\HELPERS.CPP
C:\USERS\MATISS\DESKTOP\SNAKE\SNAKE\RELEASE\VC120.PDB
^C:\USERS\MATISS\DESKTOP\SNAKE\SNAKE\IMAGELOADING.CPP
C:\USERS\MATISS\DESKTOP\SNAKE\SNAKE\RELEASE\VC120.PDB
^C:\USERS\MATISS\DESKTOP\SNAKE\SNAKE\KEYBOARDINPUT.CPP
C:\USERS\MATISS\DESKTOP\SNAKE\SNAKE\RELEASE\VC120.PDB
^C:\USERS\MATISS\DESKTOP\SNAKE\SNAKE\LIGHT.CPP
C:\USERS\MATISS\DESKTOP\SNAKE\SNAKE\RELEASE\VC120.PDB
^C:\USERS\MATISS\DESKTOP\SNAKE\SNAKE\MAIN.CPP
C:\USERS\MATISS\DESKTOP\SNAKE\SNAKE\RELEASE\VC120.PDB
^C:\USERS\MATISS\DESKTOP\SNAKE\SNAKE\MESH.CPP
C:\USERS\MATISS\DESKTOP\SNAKE\SNAKE\RELEASE\VC120.PDB
^C:\USERS\MATISS\DESKTOP\SNAKE\SNAKE\MODELTRANSFORM.CPP
C:\USERS\MATISS\DESKTOP\SNAKE\SNAKE\RELEASE\VC120.PDB
^C:\USERS\MATISS\DESKTOP\SNAKE\SNAKE\MOUSEINPUT.CPP
C:\USERS\MATISS\DESKTOP\SNAKE\SNAKE\RELEASE\VC120.PDB
^C:\USERS\MATISS\DESKTOP\SNAKE\SNAKE\POINT.CPP
C:\USERS\MATISS\DESKTOP\SNAKE\SNAKE\RELEASE\VC120.PDB
^C:\USERS\MATISS\DESKTOP\SNAKE\SNAKE\PROJECTION.CPP
C:\USERS\MATISS\DESKTOP\SNAKE\SNAKE\RELEASE\VC120.PDB
^C:\USERS\MATISS\DESKTOP\SNAKE\SNAKE\RENDERING.CPP
C:\USERS\MATISS\DESKTOP\SNAKE\SNAKE\RELEASE\VC120.PDB
^C:\USERS\MATISS\DESKTOP\SNAKE\SNAKE\RENDEROPTIONS.CPP
C:\USERS\MATISS\DESKTOP\SNAKE\SNAKE\RELEASE\VC120.PDB
^C:\USERS\MATISS\DESKTOP\SNAKE\SNAKE\SHADERLOADER.CPP
C:\USERS\MATISS\DESKTOP\SNAKE\SNAKE\RELEASE\VC120.PDB
^C:\USERS\MATISS\DESKTOP\SNAKE\SNAKE\TEXTURE.CPP
C:\USERS\MATISS\DESKTOP\SNAKE\SNAKE\RELEASE\VC120.PDB
^C:\USERS\MATISS\DESKTOP\SNAKE\SNAKE\WINDOWOPTIONS.CPP
C:\USERS\MATISS\DESKTOP\SNAKE\SNAKE\RELEASE\VC120.PDB
